0001   0000             .include "kernel.exp"
0001+  0000             PROC_TEXT_ORG    .EQU  $0400
0002+  0000             sys_bkpt         .EQU  $0000
0003+  0000             sys_rtc          .EQU  $0001
0004+  0000             sys_IDE          .EQU  $0002
0005+  0000             sys_io           .EQU  $0003
0006+  0000             sys_fileio       .EQU  $0004
0007+  0000             sys_fork         .EQU  $0005
0008+  0000             sys_list         .EQU  $0006
0009+  0000             sys_datetime     .EQU  $0007
0010+  0000             sys_reboot       .EQU  $0008
0011+  0000             sys_pauseproc    .EQU  $0009
0012+  0000             sys_resumeproc   .EQU  $000a
0013+  0000             sys_terminate_proc .EQU  $000b
0014+  0000             sys_system       .EQU  $000c
0015+  0000             sys_boot_install .EQU  $000d
0002   0000             ;;;;;;;;;;;;;;;;;;;;;;;;;;;;;;;;;;;;;;;;;;;;;;;;;;;;;;;;;;;;;;;;;;;;;;;;;;;;;;;;;;;;;;;;;;;;;;;;;;;;;;;;;;;;;;;;;;
0003   0000             ; SHELL
0004   0000             ;;;;;;;;;;;;;;;;;;;;;;;;;;;;;;;;;;;;;;;;;;;;;;;;;;;;;;;;;;;;;;;;;;;;;;;;;;;;;;;;;;;;;;;;;;;;;;;;;;;;;;;;;;;;;;;;;;
0005   0000             
0006   0000             ;;;;;;;;;;;;;;;;;;;;;;;;;;;;;;;;;;;;;;;;;;;;;;;;;;;;;;;;;;;;;;;;;;;;;;;;;;;;;;;;;;;;;;;;;;;;;;;;;;;;;;;;;;;;;;;;;;
0007   0000             ; SYSTEM CONSTANTS / EQUATIONS
0008   0000             ;;;;;;;;;;;;;;;;;;;;;;;;;;;;;;;;;;;;;;;;;;;;;;;;;;;;;;;;;;;;;;;;;;;;;;;;;;;;;;;;;;;;;;;;;;;;;;;;;;;;;;;;;;;;;;;;;;
0009   0000             STACK_BEGIN:	.equ $F7FF	; beginning of stack
0010   0000             
0011   0400             .org PROC_TEXT_ORG			; origin at 1024
0012   0400             
0013   0400             shell_main:	
0014   0400 FD 49 FF F7 	mov bp, STACK_BEGIN
0015   0404 FD 47 FF F7 	mov sp, STACK_BEGIN
0016   0408             
0017   0408 3B E9 08    	mov d, s_prompt_config
0018   040B 07 90 0D    	call puts
0019   040E             ; open config file
0020   040E             ; PATH=/usr/bin;
0021   040E             ; read PATH config entry
0022   040E 3B E3 08    	mov d, s_prompt_PATH
0023   0411 07 90 0D    	call puts
0024   0414 3B 9A 08    	mov d, s_etc_config				; '/etc/sh.conf'
0025   0417 FD 4D B8 08 	mov si, s_PATH					; config entry name is "PATH"
0026   041B FD 4F 0D 08 	mov di, PATH					; config value destination is the var that holds the PATH variable
0027   041F 07 E9 04    	call read_config	
0028   0422 3B 0D 08    	mov d, PATH
0029   0425 07 90 0D    	call puts
0030   0428             ; open config file
0031   0428             ; home = /usr/home/guest;
0032   0428             ; read home directory config entry
0033   0428 3B D2 08    	mov d, s_prompt_homedir
0034   042B 07 90 0D    	call puts
0035   042E 3B 9A 08    	mov d, s_etc_config				; '/etc/sh.conf'
0036   0431 FD 4D A7 08 	mov si, s_home					; config entry name is "home"
0037   0435 FD 4F 0D 07 	mov di, homedir					; config value destination is the var that holds the home directory path
0038   0439 07 E9 04    	call read_config	
0039   043C 3B 0D 07    	mov d, homedir
0040   043F 07 90 0D    	call puts
0041   0442             ; open config file
0042   0442             ; read manpage directory path
0043   0442 3B BD 08    	mov d, s_prompt_manpages
0044   0445 07 90 0D    	call puts
0045   0448 3B 9A 08    	mov d, s_etc_config				; '/etc/sh.conf'
0046   044B FD 4D B4 08 	mov si, s_man					; config entry name is "man"
0047   044F FD 4F 8D 07 	mov di, manpath				; config value destination is the var that holds the man pages directory path
0048   0453 07 E9 04    	call read_config
0049   0456 3B 8D 07    	mov d, manpath
0050   0459 07 90 0D    	call puts
0051   045C             
0052   045C 10 8D 08    	mov a, s_etc_profile
0053   045F 42 8F 11    	mov [prog], a
0054   0462 07 32 05    	call cmd_ssh
0055   0465             
0056   0465             shell_L0:
0057   0465 3B 46 09    	mov d, s_sol1
0058   0468 07 90 0D    	call puts
0059   046B 19 12       	mov al, 18
0060   046D 05 04       	syscall sys_fileio				; print current path
0061   046F 3B 40 09    	mov d, s_hash
0062   0472 07 90 0D    	call puts
0063   0475 3B 4D 09    	mov d, shell_input_buff
0064   0478 13          	mov a, d
0065   0479 42 8F 11    	mov [prog], a			; reset tokenizer buffer pointer
0066   047C 07 62 0C    	call gets						; get command
0067   047F 07 85 04    	call cmd_parser
0068   0482 0A 65 04    	jmp shell_L0
0069   0485             
0070   0485             cmd_parser:
0071   0485 07 F0 0F    	call get_token					; get command into tokstr
0072   0488 FD 4F C8 06 	mov di, commands
0073   048C FD 10       	cla
0074   048E 42 4F 0B    	mov [parser_index], a		; reset commands index
0075   0491             parser_L0:
0076   0491 FD 4D 93 11 	mov si, tokstr
0077   0495 07 A8 0B    	call strcmp
0078   0498 C6 C0 04    	je parser_cmd_equal
0079   049B             parser_L0_L0:
0080   049B FC 00 00    	lea d, [di + 0]
0081   049E BD 00       	cmp byte[d], 0
0082   04A0 C6 A9 04    	je parser_L0_L0_exit			; run through the keyword until finding NULL
0083   04A3 D4 01 00    	add di, 1
0084   04A6 0A 9B 04    	jmp parser_L0_L0
0085   04A9             parser_L0_L0_exit:
0086   04A9 D4 01 00    	add di, 1				; then skip NULL byte at the end 
0087   04AC 14 4F 0B    	mov a, [parser_index]
0088   04AF 53 02 00    	add a, 2
0089   04B2 42 4F 0B    	mov [parser_index], a			; increase commands table index
0090   04B5 FC 00 00    	lea d, [di + 0]
0091   04B8 BD 00       	cmp byte[d], 0
0092   04BA C6 DF 04    	je parser_cmd_not_found
0093   04BD 0A 91 04    	jmp parser_L0
0094   04C0             parser_cmd_equal:
0095   04C0 10 00 0D    	mov a, $0D00
0096   04C3 05 03       	syscall sys_io				; print carriage return
0097   04C5 14 4F 0B    	mov a, [parser_index]			; get the keyword pointer
0098   04C8 FD 07 FB 06 	call [a + keyword_ptrs]		; execute command
0099   04CC 10 00 0D    	mov a, $0D00
0100   04CF 05 03       	syscall sys_io				; print carriage return
0101   04D1             parser_retry:
0102   04D1 07 F0 0F    	call get_token
0103   04D4 BC 92 11 06 	cmp byte[tok], TOK_SEMI
0104   04D8 C6 85 04    	je cmd_parser
0105   04DB 07 76 11    	call putback
0106   04DE 09          	ret
0107   04DF             parser_cmd_not_found:
0108   04DF 07 76 11    	call putback
0109   04E2 07 D9 05    	call cmd_exec			; execute as file/program
0110   04E5 0A D1 04    	jmp parser_retry		; check for more commands
0111   04E8 09          	ret
0112   04E9             
0113   04E9             ; inputs:
0114   04E9             ; D = filename ptr
0115   04E9             ; SI = entry name ptr
0116   04E9             ; DI = output value string ptr
0117   04E9             read_config:
0118   04E9 E3          	push di
0119   04EA E2          	push si
0120   04EB FD 4F 93 15 	mov di, shell_transient_area
0121   04EF 19 14       	mov al, 20
0122   04F1 05 04       	syscall sys_fileio				; read entire config file
0123   04F3 10 93 15    	mov a, shell_transient_area
0124   04F6 42 8F 11    	mov [prog], a
0125   04F9 EF          	pop si
0126   04FA             read_config_L0:
0127   04FA 07 F0 0F    	call get_token
0128   04FD BC 92 11 14 	cmp byte[tok], TOK_END
0129   0501 C6 2D 05    	je read_config_EOF
0130   0504 FD 4F 93 11 	mov di, tokstr
0131   0508 07 A8 0B    	call strcmp
0132   050B C6 1B 05    	je read_config_found_entry
0133   050E             read_config_L0_L0:
0134   050E 07 F0 0F    	call get_token
0135   0511 BC 92 11 06 	cmp byte[tok], TOK_SEMI
0136   0515 C6 FA 04    	je read_config_L0
0137   0518 0A 0E 05    	jmp read_config_L0_L0
0138   051B             read_config_found_entry:
0139   051B 07 F0 0F    	call get_token			; bypass '=' sign
0140   051E F0          	pop di
0141   051F 14 8F 11    	mov a, [prog]
0142   0522 4D          	mov si, a
0143   0523             read_conf_L1:
0144   0523 F6          	lodsb
0145   0524 B9 3B       	cmp al, $3B				; ';'
0146   0526 C6 2E 05    	je read_config_EOF_2
0147   0529 F7          	stosb
0148   052A 0A 23 05    	jmp read_conf_L1
0149   052D             read_config_EOF:
0150   052D F0          	pop di
0151   052E             read_config_EOF_2:
0152   052E 19 00       	mov al, 0
0153   0530 F7          	stosb					; terminate value with NULL
0154   0531 09          	ret
0155   0532             
0156   0532             
0157   0532             cmd_ssh:
0158   0532 07 99 0F    	call get_path
0159   0535 3B 93 11    	mov d, tokstr
0160   0538 FD 4F 93 15 	mov di, shell_transient_area
0161   053C 19 14       	mov al, 20
0162   053E 05 04       	syscall sys_fileio				; read textfile 
0163   0540             	
0164   0540 3B 93 15    	mov d, shell_transient_area
0165   0543 13          	mov a, d
0166   0544 42 8F 11    	mov [prog], a			; reset tokenizer buffer pointer
0167   0547 07 85 04    	call cmd_parser
0168   054A             
0169   054A 07 3D 0D    	call printnl
0170   054D 09          	ret
0171   054E             	
0172   054E             ; ************************************************************
0173   054E             ; GET HEX FILE
0174   054E             ; di = destination address
0175   054E             ; return length in bytes in C
0176   054E             ; ************************************************************
0177   054E             load_hex:
0178   054E D2          	push bp
0179   054F 9B          	mov bp, sp
0180   0550 D7          	push a
0181   0551 D8          	push b
0182   0552 DA          	push d
0183   0553 E2          	push si
0184   0554 E3          	push di
0185   0555 52 00 60    	sub sp, $6000				; string data block
0186   0558 38 00 00    	mov c, 0
0187   055B             	
0188   055B 48          	mov a, sp
0189   055C 77          	inc a
0190   055D 3C          	mov d, a				; start of string data block
0191   055E 07 62 0C    	call gets				; get program string
0192   0561 4D          	mov si, a
0193   0562             load_hex_loop:
0194   0562 F6          	lodsb					; load from [SI] to AL
0195   0563 B9 00       	cmp al, 0				; check if ASCII 0
0196   0565 C6 73 05    	jz load_hex_ret
0197   0568 36          	mov bh, al
0198   0569 F6          	lodsb
0199   056A 2F          	mov bl, al
0200   056B 07 10 0C    	call atoi				; convert ASCII byte in B to int (to AL)
0201   056E F7          	stosb					; store AL to [DI]
0202   056F 78          	inc c
0203   0570 0A 62 05    	jmp load_hex_loop
0204   0573             load_hex_ret:
0205   0573 51 00 60    	add sp, $6000
0206   0576 F0          	pop di
0207   0577 EF          	pop si
0208   0578 E7          	pop d
0209   0579 E5          	pop b
0210   057A E4          	pop a
0211   057B 9C          	mov sp, bp
0212   057C F1          	pop bp
0213   057D 09          	ret
0214   057E             
0215   057E             cmd_setdate:
0216   057E 19 01       	mov al, 1			; set datetime
0217   0580 05 07       	syscall sys_datetime	
0218   0582 09          	ret	
0219   0583             	
0220   0583             ;;;;;;;;;;;;;;;;;;;;;;;;;;;;;;;;;;;;;;;;;;;;;;;;;;;;;;;;;;;;;;;;;;;;;;;;;;;;;;;;;;
0221   0583             ;; FILE SYSTEM DATA
0222   0583             ;;;;;;;;;;;;;;;;;;;;;;;;;;;;;;;;;;;;;;;;;;;;;;;;;;;;;;;;;;;;;;;;;;;;;;;;;;;;;;;;;;
0223   0583             ; infor for : IDE SERVICES INTERRUPT
0224   0583             ; al = option
0225   0583             ; IDE read/write sector
0226   0583             ; 512 bytes
0227   0583             ; user buffer pointer in D
0228   0583             ; AH = number of sectors
0229   0583             ; CB = LBA bytes 3..0	
0230   0583             ;;;;;;;;;;;;;;;;;;;;;;;;;;;;;;;;;;;;;;;;;;;;;;;;;;;;;;;;;;;;;;;;;;;;;;;;;;;;;;;;;;
0231   0583             ;; FILE SYSTEM DATA STRUCTURE
0232   0583             ;;;;;;;;;;;;;;;;;;;;;;;;;;;;;;;;;;;;;;;;;;;;;;;;;;;;;;;;;;;;;;;;;;;;;;;;;;;;;;;;;;
0233   0583             ; for a directory we have the header first, followed by metadata
0234   0583             ; header 1 sector (512 bytes)
0235   0583             ; metadata 1 sector (512 bytes)
0236   0583             ; HEADER ENTRIES:
0237   0583             ; filename (64)
0238   0583             ; parent dir LBA (2) -  to be used for faster backwards navigation...
0239   0583             ;
0240   0583             ; metadata entries:
0241   0583             ; filename (24)
0242   0583             ; attributes (1)
0243   0583             ; LBA (2)
0244   0583             ; size (2)
0245   0583             ; day (1)
0246   0583             ; month (1)
0247   0583             ; year (1)
0248   0583             ; packet size = 32 bytes
0249   0583             ;
0250   0583             ; first directory on disk is the root directory '/'
0251   0583             ;;;;;;;;;;;;;;;;;;;;;;;;;;;;;;;;;;;;;;;;;;;;;;;;;;;;;;;;;;;;;;;;;;;;;;;;;;;;;;;;;;
0252   0583             ;; FILE SYSTEM DISK FORMATTING
0253   0583             ;;;;;;;;;;;;;;;;;;;;;;;;;;;;;;;;;;;;;;;;;;;;;;;;;;;;;;;;;;;;;;;;;;;;;;;;;;;;;;;;;;
0254   0583             ; writes FST_TOTAL_SECTORS + FS_NBR_FILES disk sectors  with 0's
0255   0583             ; this is the file system table formating
0256   0583             cmd_mkfs:
0257   0583 19 00       	mov al, 0
0258   0585 05 04       	syscall sys_fileio
0259   0587 09          	ret
0260   0588             
0261   0588             
0262   0588             
0263   0588             ;;;;;;;;;;;;;;;;;;;;;;;;;;;;;;;;;;;;;;;;;;;;;;;;;;;;;;;;;;;;;;;;;;;;;;;;;;;;;;;;;;
0264   0588             ;; parse path
0265   0588             ;; 
0266   0588             ;;
0267   0588             ;;;;;;;;;;;;;;;;;;;;;;;;;;;;;;;;;;;;;;;;;;;;;;;;;;;;;;;;;;;;;;;;;;;;;;;;;;;;;;;;;;
0268   0588             
0269   0588             
0270   0588             ;;;;;;;;;;;;;;;;;;;;;;;;;;;;;;;;;;;;;;;;;;;;;;;;;;;;;;;;;;;;;;;;;;;;;;;;;;;;;;;;;;
0271   0588             ;; CD
0272   0588             ;;;;;;;;;;;;;;;;;;;;;;;;;;;;;;;;;;;;;;;;;;;;;;;;;;;;;;;;;;;;;;;;;;;;;;;;;;;;;;;;;;
0273   0588             ; search for given directory inside current dir
0274   0588             ; if found, read its LBA, and switch directories
0275   0588             ; example:	cd /usr/bin; ls
0276   0588             ; 			cd /usr/bin;
0277   0588             ;			cd /usr/bin
0278   0588             cmd_cd:
0279   0588 07 F0 0F    	call get_token
0280   058B 1D 92 11    	mov al, [tok]
0281   058E B9 14       	cmp al, TOK_END
0282   0590 C6 B6 05    	je cmd_cd_gotohome
0283   0593 B9 06       	cmp al, TOK_SEMI
0284   0595 C6 B6 05    	je cmd_cd_gotohome
0285   0598 B9 08       	cmp al, TOK_TILDE
0286   059A C6 B6 05    	je cmd_cd_gotohome
0287   059D 07 76 11    	call putback
0288   05A0 07 99 0F    	call get_path		; get the path for the cd command
0289   05A3             cmd_cd_syscall:
0290   05A3 3B 93 11    	mov d, tokstr
0291   05A6 19 13       	mov al, 19
0292   05A8 05 04       	syscall sys_fileio	; get dirID in A
0293   05AA AF FF FF    	cmp a, $FFFF
0294   05AD C6 C7 05    	je cmd_cd_fail
0295   05B0 27          	mov b, a
0296   05B1 19 03       	mov al, 3
0297   05B3 05 04       	syscall sys_fileio	; set dir to B
0298   05B5 09          	ret
0299   05B6             cmd_cd_gotohome:
0300   05B6 07 76 11    	call putback
0301   05B9 FD 4D 0D 07 	mov si, homedir
0302   05BD FD 4F 93 11 	mov di, tokstr
0303   05C1 07 BD 0B    	call strcpy
0304   05C4 0A A3 05    	jmp cmd_cd_syscall
0305   05C7             cmd_cd_fail:
0306   05C7 09          	ret
0307   05C8             ;;;;;;;;;;;;;;;;;;;;;;;;;;;;;;;
0308   05C8             ;; pad string to 32 chars
0309   05C8             ;;;;;;;;;;;;;;;;;;;;;;;;;;;;;;;
0310   05C8             ; count in C
0311   05C8             padding:
0312   05C8 D7          	push a
0313   05C9 10 20 00    	mov a, 32
0314   05CC 28          	mov b, c
0315   05CD 60          	sub a, b
0316   05CE 39          	mov c, a
0317   05CF             padding_L1:
0318   05CF 22 20       	mov ah, $20
0319   05D1 07 5B 0C    	call putchar
0320   05D4 A9 CF 05    	loopc padding_L1
0321   05D7 E4          	pop a
0322   05D8 09          	ret
0323   05D9             ; file structure:
0324   05D9             ; 512 bytes header
0325   05D9             ; header used to tell whether the block is free
0326   05D9             
0327   05D9             ;;;;;;;;;;;;;;;;;;;;;;;;;;;;;;;;;;;;;;;;;;;;;;;;;;;;;;;;;;;;;;;;;;;;;;;;;;;;;;;;;;
0328   05D9             ;; EXEC/OPEN PROGRAM/FILE
0329   05D9             ;; 'filename' maps to '/usr/bin/filename'
0330   05D9             ;; './file' or '/a/directory/file' loads a file directly
0331   05D9             ;;;;;;;;;;;;;;;;;;;;;;;;;;;;;;;;;;;;;;;;;;;;;;;;;;;;;;;;;;;;;;;;;;;;;;;;;;;;;;;;;;
0332   05D9             cmd_exec:
0333   05D9 BC 92 11 14 	cmp byte[tok], TOK_END
0334   05DD C6 63 06    	je cmd_exec_ret		; check for NULL input
0335   05E0 07 99 0F    	call get_path		; get file path 
0336   05E3 14 8F 11    	mov a, [prog]
0337   05E6 D7          	push a				; save argument pointer
0338   05E7 FD 4D 93 11 	mov si, tokstr
0339   05EB FD 4F 93 12 	mov di, temp_data1
0340   05EF 07 BD 0B    	call strcpy			; copy filename for later
0341   05F2 BC 93 11 2F 	cmp byte[tokstr], '/'	; check first character of path
0342   05F6 C6 54 06    	je cmd_exec_abs
0343   05F9 BC 93 11 2E 	cmp byte[tokstr], '.'	; check first character of path
0344   05FD C6 54 06    	je cmd_exec_abs
0345   0600 10 0D 08    	mov a, PATH
0346   0603 42 8F 11    	mov [prog], a		; set token pointer to $PATH beginning
0347   0606             cmd_exec_L0:
0348   0606 07 99 0F    	call get_path		; get a path option
0349   0609 FD 4D 93 11 	mov si, tokstr
0350   060D FD 4F 93 13 	mov di, temp_data
0351   0611 07 BD 0B    	call strcpy			; firstly, form address from one of the '$PATH' addresses
0352   0614 FD 4D 44 09 	mov si, s_fslash
0353   0618 FD 4F 93 13 	mov di, temp_data
0354   061C 07 CB 0B    	call strcat			; add '/' in between $PATH component and filename
0355   061F FD 4D 93 12 	mov si, temp_data1
0356   0623 FD 4F 93 13 	mov di, temp_data
0357   0627 07 CB 0B    	call strcat			; now glue the given filename to the total path
0358   062A 3B 93 13    	mov d, temp_data
0359   062D 19 15       	mov al, 21
0360   062F 05 04       	syscall sys_fileio	; now we check whether such a file exists. success code is given in A. if 0, file does not exist
0361   0631 AF 00 00    	cmp a, 0
0362   0634 C7 44 06    	jne cmd_exec_PATH_exists
0363   0637 07 F0 0F    	call get_token
0364   063A BC 92 11 06 	cmp byte[tok], TOK_SEMI
0365   063E C6 54 06    	je cmd_exec_abs		; if file not found as $PATH/filename, then try to load it without using $PATH
0366   0641 0A 06 06    	jmp cmd_exec_L0		; if not ';' at the end, then token must be a separator. so try another path
0367   0644             cmd_exec_PATH_exists:
0368   0644 E4          	pop a				; retrieve token pointer which points to the arguments given
0369   0645 42 8F 11    	mov [prog], a
0370   0648 07 65 0F    	call get_arg		; if however, $PATH/filename was found, then we execute it
0371   064B 26 93 11    	mov b, tokstr
0372   064E 3B 93 13    	mov d, temp_data
0373   0651 05 05       	syscall sys_fork
0374   0653 09          	ret
0375   0654             cmd_exec_abs:	; execute as absolute path
0376   0654 E4          	pop a
0377   0655 42 8F 11    	mov [prog], a
0378   0658 07 65 0F    	call get_arg
0379   065B 26 93 11    	mov b, tokstr
0380   065E 3B 93 12    	mov d, temp_data1	;original filename
0381   0661 05 05       	syscall sys_fork
0382   0663             cmd_exec_ret:
0383   0663 09          	ret
0384   0664             
0385   0664             
0386   0664             cmd_shutdown:
0387   0664 19 01       	mov al, 1
0388   0666 05 02       	syscall sys_IDE
0389   0668 FF          	halt
0390   0669 09          	ret
0391   066A             
0392   066A             cmd_reboot:
0393   066A 3B 15 09    	mov d, s_rebooting
0394   066D 07 90 0D    	call puts
0395   0670 05 08       	syscall sys_reboot
0396   0672             
0397   0672             cmd_drtoggle:
0398   0672 0C          	lodstat
0399   0673 2F          	mov bl, al
0400   0674 FD 87 DF    	and bl, %11011111
0401   0677 87 20       	and al, %00100000
0402   0679 8F 20       	xor al, %00100000
0403   067B 8C          	or al, bl
0404   067C 0D          	stostat
0405   067D             	
0406   067D 09          	ret
0407   067E             
0408   067E             cmd_man:
0409   067E 3B 26 09    	mov d, s_telnet_clear
0410   0681 07 90 0D    	call puts
0411   0684 FD 4D 8D 07 	mov si, manpath
0412   0688 FD 4F 93 13 	mov di, temp_data
0413   068C 07 BD 0B    	call strcpy				; complete path with command name
0414   068F FD 4D 44 09 	mov si, s_fslash
0415   0693 FD 4F 93 13 	mov di, temp_data
0416   0697 07 CB 0B    	call strcat				; add '/' to the end
0417   069A 07 F0 0F    	call get_token
0418   069D FD 4D 93 11 	mov si, tokstr
0419   06A1 FD 4F 93 13 	mov di, temp_data
0420   06A5 07 CB 0B    	call strcat				; complete path with command name
0421   06A8 3B 93 13    	mov d, temp_data
0422   06AB FD 4F 93 15 	mov di, shell_transient_area
0423   06AF 19 14       	mov al, 20
0424   06B1 05 04       	syscall sys_fileio
0425   06B3 3B 93 15    	mov d, shell_transient_area
0426   06B6 07 90 0D    	call puts
0427   06B9 07 3D 0D    	call printnl
0428   06BC             cmd_man_fail:
0429   06BC 09          	ret
0430   06BD             
0431   06BD             cmd_fg:
0432   06BD 07 F0 0F    	call get_token
0433   06C0 1D 93 11    	mov al, [tokstr]
0434   06C3 6F 30       	sub al, $30
0435   06C5 05 0A       	syscall sys_resumeproc
0436   06C7 09          	ret
0437   06C8             
0438   06C8 6D 6B 66 73 commands:		.db "mkfs", 0
0438   06CC 00 
0439   06CD 63 64 00    				.db "cd", 0
0440   06D0 73 64 61 74 				.db "sdate", 0
0440   06D4 65 00 
0441   06D6 72 65 62 6F 				.db "reboot", 0
0441   06DA 6F 74 00 
0442   06DD 73 68 75 74 				.db "shutdown", 0
0442   06E1 64 6F 77 6E 
0442   06E5 00 
0443   06E6 64 72 74 6F 				.db "drtoggle", 0
0443   06EA 67 67 6C 65 
0443   06EE 00 
0444   06EF 6D 61 6E 00 				.db "man", 0
0445   06F3 66 67 00    				.db "fg", 0
0446   06F6 73 73 68 00 				.db "ssh", 0
0447   06FA 00          				.db 0
0448   06FB             
0449   06FB 83 05       keyword_ptrs:	.dw cmd_mkfs
0450   06FD 88 05       				.dw cmd_cd
0451   06FF 7E 05       				.dw cmd_setdate
0452   0701 6A 06       				.dw cmd_reboot
0453   0703 64 06       				.dw cmd_shutdown
0454   0705 72 06       				.dw cmd_drtoggle
0455   0707 7E 06       				.dw cmd_man
0456   0709 BD 06       				.dw cmd_fg
0457   070B 32 05       				.dw cmd_ssh
0458   070D             
0459   070D 00 00 00 00 homedir:		.fill 128, 0
0459   0711 00 00 00 00 
0459   0715 00 00 00 00 
0459   0719 00 00 00 00 
0459   071D 00 00 00 00 
0459   0721 00 00 00 00 
0459   0725 00 00 00 00 
0459   0729 00 00 00 00 
0459   072D 00 00 00 00 
0459   0731 00 00 00 00 
0459   0735 00 00 00 00 
0459   0739 00 00 00 00 
0459   073D 00 00 00 00 
0459   0741 00 00 00 00 
0459   0745 00 00 00 00 
0459   0749 00 00 00 00 
0459   074D 00 00 00 00 
0459   0751 00 00 00 00 
0459   0755 00 00 00 00 
0459   0759 00 00 00 00 
0459   075D 00 00 00 00 
0459   0761 00 00 00 00 
0459   0765 00 00 00 00 
0459   0769 00 00 00 00 
0459   076D 00 00 00 00 
0459   0771 00 00 00 00 
0459   0775 00 00 00 00 
0459   0779 00 00 00 00 
0459   077D 00 00 00 00 
0459   0781 00 00 00 00 
0459   0785 00 00 00 00 
0459   0789 00 00 00 00 
0460   078D 00 00 00 00 manpath:		.fill 128, 0		; man path
0460   0791 00 00 00 00 
0460   0795 00 00 00 00 
0460   0799 00 00 00 00 
0460   079D 00 00 00 00 
0460   07A1 00 00 00 00 
0460   07A5 00 00 00 00 
0460   07A9 00 00 00 00 
0460   07AD 00 00 00 00 
0460   07B1 00 00 00 00 
0460   07B5 00 00 00 00 
0460   07B9 00 00 00 00 
0460   07BD 00 00 00 00 
0460   07C1 00 00 00 00 
0460   07C5 00 00 00 00 
0460   07C9 00 00 00 00 
0460   07CD 00 00 00 00 
0460   07D1 00 00 00 00 
0460   07D5 00 00 00 00 
0460   07D9 00 00 00 00 
0460   07DD 00 00 00 00 
0460   07E1 00 00 00 00 
0460   07E5 00 00 00 00 
0460   07E9 00 00 00 00 
0460   07ED 00 00 00 00 
0460   07F1 00 00 00 00 
0460   07F5 00 00 00 00 
0460   07F9 00 00 00 00 
0460   07FD 00 00 00 00 
0460   0801 00 00 00 00 
0460   0805 00 00 00 00 
0460   0809 00 00 00 00 
0461   080D 00 00 00 00 PATH:			.fill 128, 0		; $PATH environment variable (for now just one path)
0461   0811 00 00 00 00 
0461   0815 00 00 00 00 
0461   0819 00 00 00 00 
0461   081D 00 00 00 00 
0461   0821 00 00 00 00 
0461   0825 00 00 00 00 
0461   0829 00 00 00 00 
0461   082D 00 00 00 00 
0461   0831 00 00 00 00 
0461   0835 00 00 00 00 
0461   0839 00 00 00 00 
0461   083D 00 00 00 00 
0461   0841 00 00 00 00 
0461   0845 00 00 00 00 
0461   0849 00 00 00 00 
0461   084D 00 00 00 00 
0461   0851 00 00 00 00 
0461   0855 00 00 00 00 
0461   0859 00 00 00 00 
0461   085D 00 00 00 00 
0461   0861 00 00 00 00 
0461   0865 00 00 00 00 
0461   0869 00 00 00 00 
0461   086D 00 00 00 00 
0461   0871 00 00 00 00 
0461   0875 00 00 00 00 
0461   0879 00 00 00 00 
0461   087D 00 00 00 00 
0461   0881 00 00 00 00 
0461   0885 00 00 00 00 
0461   0889 00 00 00 00 
0462   088D             
0463   088D 2F 65 74 63 s_etc_profile:	.db "/etc/profile", 0
0463   0891 2F 70 72 6F 
0463   0895 66 69 6C 65 
0463   0899 00 
0464   089A 2F 65 74 63 s_etc_config:	.db "/etc/sh.conf", 0
0464   089E 2F 73 68 2E 
0464   08A2 63 6F 6E 66 
0464   08A6 00 
0465   08A7 68 6F 6D 65 s_home:			.db "home", 0
0465   08AB 00 
0466   08AC 77 65 6C 63 s_welcome:		.db "welcome", 0
0466   08B0 6F 6D 65 00 
0467   08B4 6D 61 6E 00 s_man:			.db "man", 0
0468   08B8 50 41 54 48 s_PATH:			.db "PATH", 0
0468   08BC 00 
0469   08BD             
0470   08BD 0A 6D 61 6E s_prompt_manpages:	.db "\nmanpages directory=", 0
0470   08C1 70 61 67 65 
0470   08C5 73 20 64 69 
0470   08C9 72 65 63 74 
0470   08CD 6F 72 79 3D 
0470   08D1 00 
0471   08D2 0A 68 6F 6D s_prompt_homedir:	.db "\nhome directory=", 0
0471   08D6 65 20 64 69 
0471   08DA 72 65 63 74 
0471   08DE 6F 72 79 3D 
0471   08E2 00 
0472   08E3 50 41 54 48 s_prompt_PATH:		.db "PATH=", 0
0472   08E7 3D 00 
0473   08E9 0A 72 65 61 s_prompt_config:	.db "\nreading \'/etc/sh.conf\' configuration file\n", 0
0473   08ED 64 69 6E 67 
0473   08F1 20 27 2F 65 
0473   08F5 74 63 2F 73 
0473   08F9 68 2E 63 6F 
0473   08FD 6E 66 27 20 
0473   0901 63 6F 6E 66 
0473   0905 69 67 75 72 
0473   0909 61 74 69 6F 
0473   090D 6E 20 66 69 
0473   0911 6C 65 0A 00 
0474   0915             
0475   0915 1B 5B 32 4A s_rebooting: 	.db 27, "[2J", 27, "[H", "rebooting", 0
0475   0919 1B 5B 48 72 
0475   091D 65 62 6F 6F 
0475   0921 74 69 6E 67 
0475   0925 00 
0476   0926 1B 5B 32 4A s_telnet_clear:	.db 27, "[2J", 27, "[H", 0
0476   092A 1B 5B 48 00 
0477   092E 25 20 00    s_dataentry:	.db "% ", 0
0478   0931 0A 73 79 6E s_syntax_err:	.db "\nsyntax error\n", 0
0478   0935 74 61 78 20 
0478   0939 65 72 72 6F 
0478   093D 72 0A 00 
0479   0940 20 23 20 00 s_hash:			.db " # ", 0
0480   0944 2F 00       s_fslash:		.db "/", 0
0481   0946 73 6F 6C 2D s_sol1:			.db "sol-1:", 0
0481   094A 31 3A 00 
0482   094D             ; shell variables
0483   094D 00 00 00 00 shell_input_buff:	.fill 512, 0
0483   0951 00 00 00 00 
0483   0955 00 00 00 00 
0483   0959 00 00 00 00 
0483   095D 00 00 00 00 
0483   0961 00 00 00 00 
0483   0965 00 00 00 00 
0483   0969 00 00 00 00 
0483   096D 00 00 00 00 
0483   0971 00 00 00 00 
0483   0975 00 00 00 00 
0483   0979 00 00 00 00 
0483   097D 00 00 00 00 
0483   0981 00 00 00 00 
0483   0985 00 00 00 00 
0483   0989 00 00 00 00 
0483   098D 00 00 00 00 
0483   0991 00 00 00 00 
0483   0995 00 00 00 00 
0483   0999 00 00 00 00 
0483   099D 00 00 00 00 
0483   09A1 00 00 00 00 
0483   09A5 00 00 00 00 
0483   09A9 00 00 00 00 
0483   09AD 00 00 00 00 
0483   09B1 00 00 00 00 
0483   09B5 00 00 00 00 
0483   09B9 00 00 00 00 
0483   09BD 00 00 00 00 
0483   09C1 00 00 00 00 
0483   09C5 00 00 00 00 
0483   09C9 00 00 00 00 
0483   09CD 00 00 00 00 
0483   09D1 00 00 00 00 
0483   09D5 00 00 00 00 
0483   09D9 00 00 00 00 
0483   09DD 00 00 00 00 
0483   09E1 00 00 00 00 
0483   09E5 00 00 00 00 
0483   09E9 00 00 00 00 
0483   09ED 00 00 00 00 
0483   09F1 00 00 00 00 
0483   09F5 00 00 00 00 
0483   09F9 00 00 00 00 
0483   09FD 00 00 00 00 
0483   0A01 00 00 00 00 
0483   0A05 00 00 00 00 
0483   0A09 00 00 00 00 
0483   0A0D 00 00 00 00 
0483   0A11 00 00 00 00 
0483   0A15 00 00 00 00 
0483   0A19 00 00 00 00 
0483   0A1D 00 00 00 00 
0483   0A21 00 00 00 00 
0483   0A25 00 00 00 00 
0483   0A29 00 00 00 00 
0483   0A2D 00 00 00 00 
0483   0A31 00 00 00 00 
0483   0A35 00 00 00 00 
0483   0A39 00 00 00 00 
0483   0A3D 00 00 00 00 
0483   0A41 00 00 00 00 
0483   0A45 00 00 00 00 
0483   0A49 00 00 00 00 
0483   0A4D 00 00 00 00 
0483   0A51 00 00 00 00 
0483   0A55 00 00 00 00 
0483   0A59 00 00 00 00 
0483   0A5D 00 00 00 00 
0483   0A61 00 00 00 00 
0483   0A65 00 00 00 00 
0483   0A69 00 00 00 00 
0483   0A6D 00 00 00 00 
0483   0A71 00 00 00 00 
0483   0A75 00 00 00 00 
0483   0A79 00 00 00 00 
0483   0A7D 00 00 00 00 
0483   0A81 00 00 00 00 
0483   0A85 00 00 00 00 
0483   0A89 00 00 00 00 
0483   0A8D 00 00 00 00 
0483   0A91 00 00 00 00 
0483   0A95 00 00 00 00 
0483   0A99 00 00 00 00 
0483   0A9D 00 00 00 00 
0483   0AA1 00 00 00 00 
0483   0AA5 00 00 00 00 
0483   0AA9 00 00 00 00 
0483   0AAD 00 00 00 00 
0483   0AB1 00 00 00 00 
0483   0AB5 00 00 00 00 
0483   0AB9 00 00 00 00 
0483   0ABD 00 00 00 00 
0483   0AC1 00 00 00 00 
0483   0AC5 00 00 00 00 
0483   0AC9 00 00 00 00 
0483   0ACD 00 00 00 00 
0483   0AD1 00 00 00 00 
0483   0AD5 00 00 00 00 
0483   0AD9 00 00 00 00 
0483   0ADD 00 00 00 00 
0483   0AE1 00 00 00 00 
0483   0AE5 00 00 00 00 
0483   0AE9 00 00 00 00 
0483   0AED 00 00 00 00 
0483   0AF1 00 00 00 00 
0483   0AF5 00 00 00 00 
0483   0AF9 00 00 00 00 
0483   0AFD 00 00 00 00 
0483   0B01 00 00 00 00 
0483   0B05 00 00 00 00 
0483   0B09 00 00 00 00 
0483   0B0D 00 00 00 00 
0483   0B11 00 00 00 00 
0483   0B15 00 00 00 00 
0483   0B19 00 00 00 00 
0483   0B1D 00 00 00 00 
0483   0B21 00 00 00 00 
0483   0B25 00 00 00 00 
0483   0B29 00 00 00 00 
0483   0B2D 00 00 00 00 
0483   0B31 00 00 00 00 
0483   0B35 00 00 00 00 
0483   0B39 00 00 00 00 
0483   0B3D 00 00 00 00 
0483   0B41 00 00 00 00 
0483   0B45 00 00 00 00 
0483   0B49 00 00 00 00 
0484   0B4D 00 00       shell_buff_ptr:		.dw 0
0485   0B4F 00 00       parser_index: 		.dw 0
0486   0B51             
0487   0B51             .include "stdio.asm"
0001+  0B51             ;;;;;;;;;;;;;;;;;;;;;;;;;;;;;;;;;;;;;;;;;;;;;;;;;;;;;;;;;;;;;;;;;;;;;;;;;;;;;;;;;;;;;;;;;;;;;;;;;;;;;;;;;;;;;;;;;;
0002+  0B51             ; stdio.s
0003+  0B51             ;;;;;;;;;;;;;;;;;;;;;;;;;;;;;;;;;;;;;;;;;;;;;;;;;;;;;;;;;;;;;;;;;;;;;;;;;;;;;;;;;;;;;;;;;;;;;;;;;;;;;;;;;;;;;;;;;;
0004+  0B51             .include "string.asm"
0001++ 0B51             ;;;;;;;;;;;;;;;;;;;;;;;;;;;;;;;;;;;;;;;;;;;;;;;;;;;;;;;;;;;;;;;;;;;;;;;;;;;;;;;;;;;;;;;;;;;;;;;;;;;;;;;;;;;;;;;;;;
0002++ 0B51             ; string.s
0003++ 0B51             ;;;;;;;;;;;;;;;;;;;;;;;;;;;;;;;;;;;;;;;;;;;;;;;;;;;;;;;;;;;;;;;;;;;;;;;;;;;;;;;;;;;;;;;;;;;;;;;;;;;;;;;;;;;;;;;;;;
0004++ 0B51             
0005++ 0B51             
0006++ 0B51             ;;;;;;;;;;;;;;;;;;;;;;;;;;;;;;;;;;;;;;;;;;;;;;;;;;;;;;;;;;;;;;;;;;;;;;;;;;;;;;;;;;;;;;;;;;;;;;;;;;;;;;;;;;;;;;;;;;
0007++ 0B51             ; strrev
0008++ 0B51             ; reverse a string
0009++ 0B51             ; D = string address
0010++ 0B51             ;;;;;;;;;;;;;;;;;;;;;;;;;;;;;;;;;;;;;;;;;;;;;;;;;;;;;;;;;;;;;;;;;;;;;;;;;;;;;;;;;;;;;;;;;;;;;;;;;;;;;;;;;;;;;;;;;;
0011++ 0B51             ; 01234
0012++ 0B51             strrev:
0013++ 0B51 4B          	pusha
0014++ 0B52 07 98 0B    	call strlen	; length in C
0015++ 0B55 12          	mov a, c
0016++ 0B56 AF 01 00    	cmp a, 1
0017++ 0B59 D0 73 0B    	jleu strrev_end	; check string length. string len must be > 1
0018++ 0B5C 7D          	dec a
0019++ 0B5D FD 4E       	mov si, d	; beginning of string
0020++ 0B5F FD 50       	mov di, d	; beginning of string (for destinations)
0021++ 0B61 59          	add d, a	; end of string
0022++ 0B62 12          	mov a, c
0023++ 0B63 FD 9B       	shr a		; divide by 2
0024++ 0B65 39          	mov c, a	; C now counts the steps
0025++ 0B66             strrev_L0:
0026++ 0B66 32          	mov bl, [d]	; save load right-side char into BL
0027++ 0B67 F6          	lodsb		; load left-side char into AL; increase SI
0028++ 0B68 3E          	mov [d], al	; store left char into right side
0029++ 0B69 1B          	mov al, bl
0030++ 0B6A F7          	stosb		; store right-side char into left-side; increase DI
0031++ 0B6B 7E          	dec c
0032++ 0B6C 7F          	dec d
0033++ 0B6D C2 00 00    	cmp c, 0
0034++ 0B70 C7 66 0B    	jne strrev_L0
0035++ 0B73             strrev_end:
0036++ 0B73 4C          	popa
0037++ 0B74 09          	ret
0038++ 0B75             	
0039++ 0B75             ;;;;;;;;;;;;;;;;;;;;;;;;;;;;;;;;;;;;;;;;;;;;;;;;;;;;;;;;;;;;;;;;;;;;;;;;;;;;;;;;;;;;;;;;;;;;;;;;;;;;;;;;;;;;;;;;;;
0040++ 0B75             ; strchr
0041++ 0B75             ; search string in D for char in AL
0042++ 0B75             ;;;;;;;;;;;;;;;;;;;;;;;;;;;;;;;;;;;;;;;;;;;;;;;;;;;;;;;;;;;;;;;;;;;;;;;;;;;;;;;;;;;;;;;;;;;;;;;;;;;;;;;;;;;;;;;;;;
0043++ 0B75             strchr:
0044++ 0B75             strchr_L0:
0045++ 0B75 32          	mov bl, [d]
0046++ 0B76 C1 00       	cmp bl, 0
0047++ 0B78 C6 83 0B    	je strchr_end
0048++ 0B7B BA          	cmp al, bl
0049++ 0B7C C6 83 0B    	je strchr_end
0050++ 0B7F 79          	inc d
0051++ 0B80 0A 75 0B    	jmp strchr_L0
0052++ 0B83             strchr_end:
0053++ 0B83 1B          	mov al, bl
0054++ 0B84 09          	ret
0055++ 0B85             
0056++ 0B85             ;;;;;;;;;;;;;;;;;;;;;;;;;;;;;;;;;;;;;;;;;;;;;;;;;;;;;;;;;;;;;;;;;;;;;;;;;;;;;;;;;;;;;;;;;;;;;;;;;;;;;;;;;;;;;;;;;;
0057++ 0B85             ; strstr
0058++ 0B85             ; find sub-string
0059++ 0B85             ; str1 in SI
0060++ 0B85             ; str2 in DI
0061++ 0B85             ; SI points to end of source string
0062++ 0B85             ;;;;;;;;;;;;;;;;;;;;;;;;;;;;;;;;;;;;;;;;;;;;;;;;;;;;;;;;;;;;;;;;;;;;;;;;;;;;;;;;;;;;;;;;;;;;;;;;;;;;;;;;;;;;;;;;;;
0063++ 0B85             strstr:
0064++ 0B85 DB          	push al
0065++ 0B86 DA          	push d
0066++ 0B87 E3          	push di
0067++ 0B88             strstr_loop:
0068++ 0B88 F3          	cmpsb					; compare a byte of the strings
0069++ 0B89 C7 94 0B    	jne strstr_ret
0070++ 0B8C FC 00 00    	lea d, [di + 0]
0071++ 0B8F BD 00       	cmp byte[d], 0				; check if at end of string (null)
0072++ 0B91 C7 88 0B    	jne strstr_loop				; equal chars but not at end
0073++ 0B94             strstr_ret:
0074++ 0B94 F0          	pop di
0075++ 0B95 E7          	pop d
0076++ 0B96 E8          	pop al
0077++ 0B97 09          	ret
0078++ 0B98             ;;;;;;;;;;;;;;;;;;;;;;;;;;;;;;;;;;;;;;;;;;;;;;;;;;;;;;;;;;;;;;;;;;;;;;;;;;;;;;;;;;;;;;;
0079++ 0B98             ; length of null terminated string
0080++ 0B98             ; result in C
0081++ 0B98             ; pointer in D
0082++ 0B98             ;;;;;;;;;;;;;;;;;;;;;;;;;;;;;;;;;;;;;;;;;;;;;;;;;;;;;;;;;;;;;;;;;;;;;;;;;;;;;;;;;;;;;;;
0083++ 0B98             strlen:
0084++ 0B98 DA          	push d
0085++ 0B99 38 00 00    	mov c, 0
0086++ 0B9C             strlen_L1:
0087++ 0B9C BD 00       	cmp byte [d], 0
0088++ 0B9E C6 A6 0B    	je strlen_ret
0089++ 0BA1 79          	inc d
0090++ 0BA2 78          	inc c
0091++ 0BA3 0A 9C 0B    	jmp strlen_L1
0092++ 0BA6             strlen_ret:
0093++ 0BA6 E7          	pop d
0094++ 0BA7 09          	ret
0095++ 0BA8             
0096++ 0BA8             ;;;;;;;;;;;;;;;;;;;;;;;;;;;;;;;;;;;;;;;;;;;;;;;;;;;;;;;;;;;;;;;;;;;;;;;;;;;;;;;;;;;;;;;;;;;;;;;;;;;;;;;;;;;;;;;;;;
0097++ 0BA8             ; STRCMP
0098++ 0BA8             ; compare two strings
0099++ 0BA8             ; str1 in SI
0100++ 0BA8             ; str2 in DI
0101++ 0BA8             ; CREATE A STRING COMPAIRON INSTRUCION ?????
0102++ 0BA8             ;;;;;;;;;;;;;;;;;;;;;;;;;;;;;;;;;;;;;;;;;;;;;;;;;;;;;;;;;;;;;;;;;;;;;;;;;;;;;;;;;;;;;;;;;;;;;;;;;;;;;;;;;;;;;;;;;;
0103++ 0BA8             strcmp:
0104++ 0BA8 DB          	push al
0105++ 0BA9 DA          	push d
0106++ 0BAA E3          	push di
0107++ 0BAB E2          	push si
0108++ 0BAC             strcmp_loop:
0109++ 0BAC F3          	cmpsb					; compare a byte of the strings
0110++ 0BAD C7 B8 0B    	jne strcmp_ret
0111++ 0BB0 FB FF FF    	lea d, [si +- 1]
0112++ 0BB3 BD 00       	cmp byte[d], 0				; check if at end of string (null)
0113++ 0BB5 C7 AC 0B    	jne strcmp_loop				; equal chars but not at end
0114++ 0BB8             strcmp_ret:
0115++ 0BB8 EF          	pop si
0116++ 0BB9 F0          	pop di
0117++ 0BBA E7          	pop d
0118++ 0BBB E8          	pop al
0119++ 0BBC 09          	ret
0120++ 0BBD             
0121++ 0BBD             
0122++ 0BBD             ; STRCPY
0123++ 0BBD             ; copy null terminated string from SI to DI
0124++ 0BBD             ; source in SI
0125++ 0BBD             ; destination in DI
0126++ 0BBD             strcpy:
0127++ 0BBD E2          	push si
0128++ 0BBE E3          	push di
0129++ 0BBF DB          	push al
0130++ 0BC0             strcpy_L1:
0131++ 0BC0 F6          	lodsb
0132++ 0BC1 F7          	stosb
0133++ 0BC2 B9 00       	cmp al, 0
0134++ 0BC4 C7 C0 0B    	jne strcpy_L1
0135++ 0BC7             strcpy_end:
0136++ 0BC7 E8          	pop al
0137++ 0BC8 F0          	pop di
0138++ 0BC9 EF          	pop si
0139++ 0BCA 09          	ret
0140++ 0BCB             
0141++ 0BCB             ; STRCAT
0142++ 0BCB             ; concatenate a NULL terminated string into string at DI, from string at SI
0143++ 0BCB             ; source in SI
0144++ 0BCB             ; destination in DI
0145++ 0BCB             strcat:
0146++ 0BCB E2          	push si
0147++ 0BCC E3          	push di
0148++ 0BCD D7          	push a
0149++ 0BCE DA          	push d
0150++ 0BCF 50          	mov a, di
0151++ 0BD0 3C          	mov d, a
0152++ 0BD1             strcat_goto_end_L1:
0153++ 0BD1 BD 00       	cmp byte[d], 0
0154++ 0BD3 C6 DA 0B    	je strcat_start
0155++ 0BD6 79          	inc d
0156++ 0BD7 0A D1 0B    	jmp strcat_goto_end_L1
0157++ 0BDA             strcat_start:
0158++ 0BDA FD 50       	mov di, d
0159++ 0BDC             strcat_L1:
0160++ 0BDC F6          	lodsb
0161++ 0BDD F7          	stosb
0162++ 0BDE B9 00       	cmp al, 0
0163++ 0BE0 C7 DC 0B    	jne strcat_L1
0164++ 0BE3             strcat_end:
0165++ 0BE3 E7          	pop d
0166++ 0BE4 E4          	pop a
0167++ 0BE5 F0          	pop di
0168++ 0BE6 EF          	pop si
0169++ 0BE7 09          	ret
0005+  0BE8             
0006+  0BE8 30 31 32 33 s_hex_digits:	.db "0123456789ABCDEF"	
0006+  0BEC 34 35 36 37 
0006+  0BF0 38 39 41 42 
0006+  0BF4 43 44 45 46 
0007+  0BF8             
0008+  0BF8 01 00       table_power:.dw 1
0009+  0BFA 0A 00       			.dw 10
0010+  0BFC 64 00       			.dw 100
0011+  0BFE E8 03       			.dw 1000
0012+  0C00 10 27       			.dw 10000
0013+  0C02             
0014+  0C02             ;;;;;;;;;;;;;;;;;;;;;;;;;;;;;;;;;;;;;;;;;;;;;;;;;;;;;;;;;;;;;;;;;;;;;;;;;;;;;;;;;;;;;;;;;;;;;;;;;;;;;;;;;;;;;;;;;;
0015+  0C02             ; CONVERT ASCII 'O'..'F' TO INTEGER 0..15
0016+  0C02             ; ASCII in BL
0017+  0C02             ; result in AL
0018+  0C02             ; ascii for F = 0100 0110
0019+  0C02             ; ascii for 9 = 0011 1001
0020+  0C02             ;;;;;;;;;;;;;;;;;;;;;;;;;;;;;;;;;;;;;;;;;;;;;;;;;;;;;;;;;;;;;;;;;;;;;;;;;;;;;;;;;;;;;;;;;;;;;;;;;;;;;;;;;;;;;;;;;;
0021+  0C02             hex_ascii_encode:
0022+  0C02 1B          	mov al, bl
0023+  0C03 93 40       	test al, $40				; test if letter or number
0024+  0C05 C7 0B 0C    	jnz hex_letter
0025+  0C08 87 0F       	and al, $0F				; get number
0026+  0C0A 09          	ret
0027+  0C0B             hex_letter:
0028+  0C0B 87 0F       	and al, $0F				; get letter
0029+  0C0D 6A 09       	add al, 9
0030+  0C0F 09          	ret
0031+  0C10             
0032+  0C10             ;;;;;;;;;;;;;;;;;;;;;;;;;;;;;;;;;;;;;;;;;;;;;;;;;;;;;;;;;;;;;;;;;;;;;;;;;;;;;;;;;;;;;;;;;;;;;;;;;;;;;;;;;;;;;;;;;;
0033+  0C10             ; ATOI
0034+  0C10             ; 2 letter hex string in B
0035+  0C10             ; 8bit integer returned in AL
0036+  0C10             ;;;;;;;;;;;;;;;;;;;;;;;;;;;;;;;;;;;;;;;;;;;;;;;;;;;;;;;;;;;;;;;;;;;;;;;;;;;;;;;;;;;;;;;;;;;;;;;;;;;;;;;;;;;;;;;;;;
0037+  0C10             atoi:
0038+  0C10 D8          	push b
0039+  0C11 07 02 0C    	call hex_ascii_encode			; convert BL to 4bit code in AL
0040+  0C14 30          	mov bl, bh
0041+  0C15 DB          	push al					; save a
0042+  0C16 07 02 0C    	call hex_ascii_encode
0043+  0C19 EA          	pop bl	
0044+  0C1A FD 9E 04    	shl al, 4
0045+  0C1D 8C          	or al, bl
0046+  0C1E E5          	pop b
0047+  0C1F 09          	ret	
0048+  0C20             
0049+  0C20             
0050+  0C20             ;;;;;;;;;;;;;;;;;;;;;;;;;;;;;;;;;;;;;;;;;;;;;;;;;;;;;;;;;;;;;;;;;;;;;;;;;;;;;;;;;;;;;;;;;;;;;;;;;;;;;;;;;;;;;;;;;;
0051+  0C20             ; printf
0052+  0C20             ; no need for explanations!
0053+  0C20             ;;;;;;;;;;;;;;;;;;;;;;;;;;;;;;;;;;;;;;;;;;;;;;;;;;;;;;;;;;;;;;;;;;;;;;;;;;;;;;;;;;;;;;;;;;;;;;;;;;;;;;;;;;;;;;;;;;
0054+  0C20             printf:
0055+  0C20 09          	ret
0056+  0C21             
0057+  0C21             
0058+  0C21             ;;;;;;;;;;;;;;;;;;;;;;;;;;;;;;;;;;;;;;;;;;;;;;;;;;;;;;;;;;;;;;;;;;;;;;;;;;;;;;;;;;;;;;;;;;;;;;;;;;;;;;;;;;;;;;;;;;
0059+  0C21             ; scanf
0060+  0C21             ; no need for explanations!
0061+  0C21             ;;;;;;;;;;;;;;;;;;;;;;;;;;;;;;;;;;;;;;;;;;;;;;;;;;;;;;;;;;;;;;;;;;;;;;;;;;;;;;;;;;;;;;;;;;;;;;;;;;;;;;;;;;;;;;;;;;
0062+  0C21             scanf:
0063+  0C21 09          	ret
0064+  0C22             
0065+  0C22             ;;;;;;;;;;;;;;;;;;;;;;;;;;;;;;;;;;;;;;;;;;;;;;;;;;;;;;;;;;;;;;;;;;;;;;;;;;;;;;;;;;;;;;;;;;;;;;;;;;;;;;;;;;;;;;;;;;
0066+  0C22             ; ITOA
0067+  0C22             ; 8bit value in BL
0068+  0C22             ; 2 byte ASCII result in A
0069+  0C22             ;;;;;;;;;;;;;;;;;;;;;;;;;;;;;;;;;;;;;;;;;;;;;;;;;;;;;;;;;;;;;;;;;;;;;;;;;;;;;;;;;;;;;;;;;;;;;;;;;;;;;;;;;;;;;;;;;;
0070+  0C22             itoa:
0071+  0C22 DA          	push d
0072+  0C23 D8          	push b
0073+  0C24 A7 00       	mov bh, 0
0074+  0C26 FD A4 04    	shr bl, 4	
0075+  0C29 74          	mov d, b
0076+  0C2A 1F E8 0B    	mov al, [d + s_hex_digits]
0077+  0C2D 23          	mov ah, al
0078+  0C2E             	
0079+  0C2E E5          	pop b
0080+  0C2F D8          	push b
0081+  0C30 A7 00       	mov bh, 0
0082+  0C32 FD 87 0F    	and bl, $0F
0083+  0C35 74          	mov d, b
0084+  0C36 1F E8 0B    	mov al, [d + s_hex_digits]
0085+  0C39 E5          	pop b
0086+  0C3A E7          	pop d
0087+  0C3B 09          	ret
0088+  0C3C             
0089+  0C3C             ;;;;;;;;;;;;;;;;;;;;;;;;;;;;;;;;;;;;;;;;;;;;;;;;;;;;;;;;;;;;;;;;;;;;;;;;;;;;;;;;;;;;;;;;;;;;;;;;;;;;;;;;;;;;;;;;;;
0090+  0C3C             ; HEX STRING TO BINARY
0091+  0C3C             ; di = destination address
0092+  0C3C             ; si = source
0093+  0C3C             ;;;;;;;;;;;;;;;;;;;;;;;;;;;;;;;;;;;;;;;;;;;;;;;;;;;;;;;;;;;;;;;;;;;;;;;;;;;;;;;;;;;;;;;;;;;;;;;;;;;;;;;;;;;;;;;;;;
0094+  0C3C             hex_to_int:
0095+  0C3C             hex_to_int_L1:
0096+  0C3C F6          	lodsb					; load from [SI] to AL
0097+  0C3D B9 00       	cmp al, 0				; check if ASCII 0
0098+  0C3F C6 4C 0C    	jz hex_to_int_ret
0099+  0C42 36          	mov bh, al
0100+  0C43 F6          	lodsb
0101+  0C44 2F          	mov bl, al
0102+  0C45 07 10 0C    	call atoi				; convert ASCII byte in B to int (to AL)
0103+  0C48 F7          	stosb					; store AL to [DI]
0104+  0C49 0A 3C 0C    	jmp hex_to_int_L1
0105+  0C4C             hex_to_int_ret:
0106+  0C4C 09          	ret		
0107+  0C4D             
0108+  0C4D             
0109+  0C4D             
0110+  0C4D             ;;;;;;;;;;;;;;;;;;;;;;;;;;;;;;;;;;;;;;;;;;;;;;;;;;;;;;;;;;;;;;;;;;;;;;;;;;;;;;;;;;;;;;;;;;;;;;;;;;;;;;;;;;;;;;;;;;
0111+  0C4D             ; GETCHAR
0112+  0C4D             ; char in ah
0113+  0C4D             ;;;;;;;;;;;;;;;;;;;;;;;;;;;;;;;;;;;;;;;;;;;;;;;;;;;;;;;;;;;;;;;;;;;;;;;;;;;;;;;;;;;;;;;;;;;;;;;;;;;;;;;;;;;;;;;;;;
0114+  0C4D             getchar:
0115+  0C4D DB          	push al
0116+  0C4E             getchar_retry:
0117+  0C4E FD 0C       	sti
0118+  0C50 19 01       	mov al, 1
0119+  0C52 05 03       	syscall sys_io			; receive in AH
0120+  0C54 B9 00       	cmp al, 0			; check if any char was receive
0121+  0C56 C6 4E 0C    	je getchar_retry
0122+  0C59 E8          	pop al
0123+  0C5A 09          	ret
0124+  0C5B             
0125+  0C5B             ;;;;;;;;;;;;;;;;;;;;;;;;;;;;;;;;;;;;;;;;;;;;;;;;;;;;;;;;;;;;;;;;;;;;;;;;;;;;;;;;;;;;;;;;;;;;;;;;;;;;;;;;;;;;;;;;;;
0126+  0C5B             ; PUTCHAR
0127+  0C5B             ; char in ah
0128+  0C5B             ;;;;;;;;;;;;;;;;;;;;;;;;;;;;;;;;;;;;;;;;;;;;;;;;;;;;;;;;;;;;;;;;;;;;;;;;;;;;;;;;;;;;;;;;;;;;;;;;;;;;;;;;;;;;;;;;;;
0129+  0C5B             putchar:
0130+  0C5B D7          	push a
0131+  0C5C 19 00       	mov al, 0
0132+  0C5E 05 03       	syscall sys_io			; char in AH
0133+  0C60 E4          	pop a
0134+  0C61 09          	ret
0135+  0C62             
0136+  0C62             ;;;;;;;;;;;;;;;;;;;;;;;;;;;;;;;;;;;;;;;;;;;;;;;;;;;;;;;;;;;;;;;;;;;;;;;;;;;;;;;;;;;;;;;;;;;;;;;;;;;;;;;;;;;;;;;;;;
0137+  0C62             ;; INPUT A STRING
0138+  0C62             ;; terminates with null
0139+  0C62             ;; pointer in D
0140+  0C62             ;;;;;;;;;;;;;;;;;;;;;;;;;;;;;;;;;;;;;;;;;;;;;;;;;;;;;;;;;;;;;;;;;;;;;;;;;;;;;;;;;;;;;;;;;;;;;;;;;;;;;;;;;;;;;;;;;;
0141+  0C62             gets:
0142+  0C62 D7          	push a
0143+  0C63 DA          	push d
0144+  0C64             gets_loop:
0145+  0C64 FD 0C       	sti
0146+  0C66 19 01       	mov al, 1
0147+  0C68 05 03       	syscall sys_io			; receive in AH
0148+  0C6A B9 00       	cmp al, 0				; check error code (AL)
0149+  0C6C C6 64 0C    	je gets_loop			; if no char received, retry
0150+  0C6F             
0151+  0C6F 76 1B       	cmp ah, 27
0152+  0C71 C6 8D 0C    	je gets_telnet_escape
0153+  0C74 76 0A       	cmp ah, $0A				; LF
0154+  0C76 C6 E6 0C    	je gets_end
0155+  0C79 76 5C       	cmp ah, $5C				; '\\'
0156+  0C7B C6 BD 0C    	je gets_escape
0157+  0C7E             	
0158+  0C7E 76 08       	cmp ah, $08			; check for backspace
0159+  0C80 C6 89 0C    	je gets_backspace
0160+  0C83             
0161+  0C83 1A          	mov al, ah
0162+  0C84 3E          	mov [d], al
0163+  0C85 79          	inc d
0164+  0C86 0A 64 0C    	jmp gets_loop
0165+  0C89             gets_backspace:
0166+  0C89 7F          	dec d
0167+  0C8A 0A 64 0C    	jmp gets_loop
0168+  0C8D             gets_telnet_escape:
0169+  0C8D FD 0C       	sti
0170+  0C8F 19 01       	mov al, 1
0171+  0C91 05 03       	syscall sys_io				; receive in AH without echo
0172+  0C93 B9 00       	cmp al, 0					; check error code (AL)
0173+  0C95 C6 8D 0C    	je gets_telnet_escape		; if no char received, retry
0174+  0C98 76 5B       	cmp ah, '['
0175+  0C9A C7 64 0C    	jne gets_loop
0176+  0C9D             gets_telnet_escape_phase2:
0177+  0C9D FD 0C       	sti
0178+  0C9F 19 01       	mov al, 1
0179+  0CA1 05 03       	syscall sys_io					; receive in AH without echo
0180+  0CA3 B9 00       	cmp al, 0						; check error code (AL)
0181+  0CA5 C6 9D 0C    	je gets_telnet_escape_phase2	; if no char received, retry
0182+  0CA8 76 44       	cmp ah, 'D'
0183+  0CAA C6 B5 0C    	je gets_left_arrow
0184+  0CAD 76 43       	cmp ah, 'C'
0185+  0CAF C6 B9 0C    	je gets_right_arrow
0186+  0CB2 0A 64 0C    	jmp gets_loop
0187+  0CB5             gets_left_arrow:
0188+  0CB5 7F          	dec d
0189+  0CB6 0A 64 0C    	jmp gets_loop
0190+  0CB9             gets_right_arrow:
0191+  0CB9 79          	inc d
0192+  0CBA 0A 64 0C    	jmp gets_loop
0193+  0CBD             gets_escape:
0194+  0CBD FD 0C       	sti
0195+  0CBF 19 01       	mov al, 1
0196+  0CC1 05 03       	syscall sys_io			; receive in AH
0197+  0CC3 B9 00       	cmp al, 0				; check error code (AL)
0198+  0CC5 C6 BD 0C    	je gets_escape			; if no char received, retry
0199+  0CC8 76 6E       	cmp ah, 'n'
0200+  0CCA C6 D8 0C    	je gets_LF
0201+  0CCD 76 72       	cmp ah, 'r'
0202+  0CCF C6 DF 0C    	je gets_CR
0203+  0CD2 1A          	mov al, ah				; if not a known escape, it is just a normal letter
0204+  0CD3 3E          	mov [d], al
0205+  0CD4 79          	inc d
0206+  0CD5 0A 64 0C    	jmp gets_loop
0207+  0CD8             gets_LF:
0208+  0CD8 19 0A       	mov al, $0A
0209+  0CDA 3E          	mov [d], al
0210+  0CDB 79          	inc d
0211+  0CDC 0A 64 0C    	jmp gets_loop
0212+  0CDF             gets_CR:
0213+  0CDF 19 0D       	mov al, $0D
0214+  0CE1 3E          	mov [d], al
0215+  0CE2 79          	inc d
0216+  0CE3 0A 64 0C    	jmp gets_loop
0217+  0CE6             gets_end:
0218+  0CE6 19 00       	mov al, 0
0219+  0CE8 3E          	mov [d], al				; terminate string
0220+  0CE9 E7          	pop d
0221+  0CEA E4          	pop a
0222+  0CEB 09          	ret
0223+  0CEC             
0224+  0CEC             
0225+  0CEC             
0226+  0CEC             
0227+  0CEC             ;;;;;;;;;;;;;;;;;;;;;;;;;;;;;;;;;;;;;;;;;;;;;;;;;;;;;;;;;;;;;;;;;;;;;;;;;;;;;;;;;;;;;;;;;;;;;;;;;;;;;;;;;;;;;;;;;;
0228+  0CEC             ;; INPUT TEXT
0229+  0CEC             ;; terminated with CTRL+D
0230+  0CEC             ;; pointer in D
0231+  0CEC             ;;;;;;;;;;;;;;;;;;;;;;;;;;;;;;;;;;;;;;;;;;;;;;;;;;;;;;;;;;;;;;;;;;;;;;;;;;;;;;;;;;;;;;;;;;;;;;;;;;;;;;;;;;;;;;;;;;
0232+  0CEC             gettxt:
0233+  0CEC D7          	push a
0234+  0CED DA          	push d
0235+  0CEE             gettxt_loop:
0236+  0CEE 19 01       	mov al, 1
0237+  0CF0 05 03       	syscall sys_io			; receive in AH
0238+  0CF2 B9 00       	cmp al, 0				; check error code (AL)
0239+  0CF4 C6 EE 0C    	je gettxt_loop		; if no char received, retry
0240+  0CF7 76 04       	cmp ah, 4			; EOT
0241+  0CF9 C6 37 0D    	je gettxt_end
0242+  0CFC 76 08       	cmp ah, $08			; check for backspace
0243+  0CFE C6 33 0D    	je gettxt_backspace
0244+  0D01 76 5C       	cmp ah, $5C				; '\\'
0245+  0D03 C6 0C 0D    	je gettxt_escape
0246+  0D06 1A          	mov al, ah
0247+  0D07 3E          	mov [d], al
0248+  0D08 79          	inc d
0249+  0D09 0A EE 0C    	jmp gettxt_loop
0250+  0D0C             gettxt_escape:
0251+  0D0C 19 01       	mov al, 1
0252+  0D0E 05 03       	syscall sys_io			; receive in AH
0253+  0D10 B9 00       	cmp al, 0				; check error code (AL)
0254+  0D12 C6 0C 0D    	je gettxt_escape		; if no char received, retry
0255+  0D15 76 6E       	cmp ah, 'n'
0256+  0D17 C6 25 0D    	je gettxt_LF
0257+  0D1A 76 72       	cmp ah, 'r'
0258+  0D1C C6 2C 0D    	je gettxt_CR
0259+  0D1F 1A          	mov al, ah				; if not a known escape, it is just a normal letter
0260+  0D20 3E          	mov [d], al
0261+  0D21 79          	inc d
0262+  0D22 0A EE 0C    	jmp gettxt_loop
0263+  0D25             gettxt_LF:
0264+  0D25 19 0A       	mov al, $0A
0265+  0D27 3E          	mov [d], al
0266+  0D28 79          	inc d
0267+  0D29 0A EE 0C    	jmp gettxt_loop
0268+  0D2C             gettxt_CR:
0269+  0D2C 19 0D       	mov al, $0D
0270+  0D2E 3E          	mov [d], al
0271+  0D2F 79          	inc d
0272+  0D30 0A EE 0C    	jmp gettxt_loop
0273+  0D33             gettxt_backspace:
0274+  0D33 7F          	dec d
0275+  0D34 0A EE 0C    	jmp gettxt_loop
0276+  0D37             gettxt_end:
0277+  0D37 19 00       	mov al, 0
0278+  0D39 3E          	mov [d], al				; terminate string
0279+  0D3A E7          	pop d
0280+  0D3B E4          	pop a
0281+  0D3C 09          	ret
0282+  0D3D             
0283+  0D3D             ;;;;;;;;;;;;;;;;;;;;;;;;;;;;;;;;;;;;;;;;;;;;;;;;;;;;;;;;;;;;;;;;;;;;;;;;;;;;;;;;;;;;;;;;;;;;;;;;;;;;;;;;;;;;;;;;;;
0284+  0D3D             ; PRINT NEW LINE
0285+  0D3D             ;;;;;;;;;;;;;;;;;;;;;;;;;;;;;;;;;;;;;;;;;;;;;;;;;;;;;;;;;;;;;;;;;;;;;;;;;;;;;;;;;;;;;;;;;;;;;;;;;;;;;;;;;;;;;;;;;;
0286+  0D3D             printnl:
0287+  0D3D D7          	push a
0288+  0D3E 10 00 0A    	mov a, $0A00
0289+  0D41 05 03       	syscall sys_io
0290+  0D43 10 00 0D    	mov a, $0D00
0291+  0D46 05 03       	syscall sys_io
0292+  0D48 E4          	pop a
0293+  0D49 09          	ret
0294+  0D4A             
0295+  0D4A             ;;;;;;;;;;;;;;;;;;;;;;;;;;;;;;;;;;;;;;;;;;;;;;;;;;;;;;;;;;;;;;;;;;;;;;;;;;;;;;;;;;;;;;;;;;;;;;;;;;;;;;;;;;;;;;;;;;
0296+  0D4A             ; strtoint
0297+  0D4A             ; 4 digit hex string number in d
0298+  0D4A             ; integer returned in A
0299+  0D4A             ;;;;;;;;;;;;;;;;;;;;;;;;;;;;;;;;;;;;;;;;;;;;;;;;;;;;;;;;;;;;;;;;;;;;;;;;;;;;;;;;;;;;;;;;;;;;;;;;;;;;;;;;;;;;;;;;;;
0300+  0D4A             strtointx:
0301+  0D4A D8          	push b
0302+  0D4B 32          	mov bl, [d]
0303+  0D4C 37          	mov bh, bl
0304+  0D4D 33 01 00    	mov bl, [d + 1]
0305+  0D50 07 10 0C    	call atoi				; convert to int in AL
0306+  0D53 23          	mov ah, al				; move to AH
0307+  0D54 33 02 00    	mov bl, [d + 2]
0308+  0D57 37          	mov bh, bl
0309+  0D58 33 03 00    	mov bl, [d + 3]
0310+  0D5B 07 10 0C    	call atoi				; convert to int in AL
0311+  0D5E E5          	pop b
0312+  0D5F 09          	ret
0313+  0D60             
0314+  0D60             ;;;;;;;;;;;;;;;;;;;;;;;;;;;;;;;;;;;;;;;;;;;;;;;;;;;;;;;;;;;;;;;;;;;;;;;;;;;;;;;;;;;;;;;;;;;;;;;;;;;;;;;;;;;;;;;;;;
0315+  0D60             ; strtoint
0316+  0D60             ; 5 digit base10 string number in d
0317+  0D60             ; integer returned in A
0318+  0D60             ;;;;;;;;;;;;;;;;;;;;;;;;;;;;;;;;;;;;;;;;;;;;;;;;;;;;;;;;;;;;;;;;;;;;;;;;;;;;;;;;;;;;;;;;;;;;;;;;;;;;;;;;;;;;;;;;;;
0319+  0D60             strtoint:
0320+  0D60 E2          	push si
0321+  0D61 D8          	push b
0322+  0D62 D9          	push c
0323+  0D63 DA          	push d
0324+  0D64 07 98 0B    	call strlen			; get string length in C
0325+  0D67 7E          	dec c
0326+  0D68 FD 4E       	mov si, d
0327+  0D6A 12          	mov a, c
0328+  0D6B FD 99       	shl a
0329+  0D6D 3B F8 0B    	mov d, table_power
0330+  0D70 59          	add d, a
0331+  0D71 38 00 00    	mov c, 0
0332+  0D74             strtoint_L0:
0333+  0D74 F6          	lodsb			; load ASCII to al
0334+  0D75 B9 00       	cmp al, 0
0335+  0D77 C6 8A 0D    	je strtoint_end
0336+  0D7A 6F 30       	sub al, $30		; make into integer
0337+  0D7C 22 00       	mov ah, 0
0338+  0D7E 2A          	mov b, [d]
0339+  0D7F AC          	mul a, b			; result in B since it fits in 16bits
0340+  0D80 11          	mov a, b
0341+  0D81 28          	mov b, c
0342+  0D82 54          	add a, b
0343+  0D83 39          	mov c, a
0344+  0D84 63 02 00    	sub d, 2
0345+  0D87 0A 74 0D    	jmp strtoint_L0
0346+  0D8A             strtoint_end:
0347+  0D8A 12          	mov a, c
0348+  0D8B E7          	pop d
0349+  0D8C E6          	pop c
0350+  0D8D E5          	pop b
0351+  0D8E EF          	pop si
0352+  0D8F 09          	ret
0353+  0D90             
0354+  0D90             
0355+  0D90             ;;;;;;;;;;;;;;;;;;;;;;;;;;;;;;;;;;;;;;;;;;;;;;;;;;;;;;;;;;;;;;;;;;;;;;;;;;;;;;;;;;;;;;;;;;;;;;;;;;;;;;;;;;;;;;;;;;
0356+  0D90             ; PRINT NULL TERMINATED STRING
0357+  0D90             ; pointer in D
0358+  0D90             ;;;;;;;;;;;;;;;;;;;;;;;;;;;;;;;;;;;;;;;;;;;;;;;;;;;;;;;;;;;;;;;;;;;;;;;;;;;;;;;;;;;;;;;;;;;;;;;;;;;;;;;;;;;;;;;;;;
0359+  0D90             puts:
0360+  0D90 D7          	push a
0361+  0D91 DA          	push d
0362+  0D92             puts_L1:
0363+  0D92 1E          	mov al, [d]
0364+  0D93 B9 00       	cmp al, 0
0365+  0D95 C6 A1 0D    	jz puts_END
0366+  0D98 23          	mov ah, al
0367+  0D99 19 00       	mov al, 0
0368+  0D9B 05 03       	syscall sys_io
0369+  0D9D 79          	inc d
0370+  0D9E 0A 92 0D    	jmp puts_L1
0371+  0DA1             puts_END:
0372+  0DA1 E7          	pop d
0373+  0DA2 E4          	pop a
0374+  0DA3 09          	ret
0375+  0DA4             
0376+  0DA4             ;;;;;;;;;;;;;;;;;;;;;;;;;;;;;;;;;;;;;;;;;;;;;;;;;;;;;;;;;;;;;;;;;;;;;;;;;;;;;;;;;;;;;;;;;;;;;;;;;;;;;;;;;;;;;;;;;;
0377+  0DA4             ; PRINT N SIZE STRING
0378+  0DA4             ; pointer in D
0379+  0DA4             ; size in C
0380+  0DA4             ;;;;;;;;;;;;;;;;;;;;;;;;;;;;;;;;;;;;;;;;;;;;;;;;;;;;;;;;;;;;;;;;;;;;;;;;;;;;;;;;;;;;;;;;;;;;;;;;;;;;;;;;;;;;;;;;;;
0381+  0DA4             putsn:
0382+  0DA4 DB          	push al
0383+  0DA5 DA          	push d
0384+  0DA6 D9          	push c
0385+  0DA7             putsn_L0:
0386+  0DA7 1E          	mov al, [d]
0387+  0DA8 23          	mov ah, al
0388+  0DA9 19 00       	mov al, 0
0389+  0DAB 05 03       	syscall sys_io
0390+  0DAD 79          	inc d
0391+  0DAE 7E          	dec c	
0392+  0DAF C2 00 00    	cmp c, 0
0393+  0DB2 C7 A7 0D    	jne putsn_L0
0394+  0DB5             putsn_end:
0395+  0DB5 E6          	pop c
0396+  0DB6 E7          	pop d
0397+  0DB7 E8          	pop al
0398+  0DB8 09          	ret
0399+  0DB9             
0400+  0DB9             ;;;;;;;;;;;;;;;;;;;;;;;;;;;;;;;;;;;;;;;;;;;;;;;;;;;;;;;;;;;;;;;;;;;;;;;;;;;;;;;;;;;;;;;
0401+  0DB9             ; print 16bit decimal number
0402+  0DB9             ; input number in A
0403+  0DB9             ;;;;;;;;;;;;;;;;;;;;;;;;;;;;;;;;;;;;;;;;;;;;;;;;;;;;;;;;;;;;;;;;;;;;;;;;;;;;;;;;;;;;;;;
0404+  0DB9             print_u16d:
0405+  0DB9 D7          	push a
0406+  0DBA D8          	push b
0407+  0DBB 26 10 27    	mov b, 10000
0408+  0DBE AE          	div a, b			; get 10000 coeff.
0409+  0DBF 07 E5 0D    	call print_zero_or_space
0410+  0DC2 11          	mov a, b
0411+  0DC3 26 E8 03    	mov b, 1000
0412+  0DC6 AE          	div a, b			; get 10000 coeff.
0413+  0DC7 07 E5 0D    	call print_zero_or_space
0414+  0DCA 11          	mov a, b
0415+  0DCB 26 64 00    	mov b, 100
0416+  0DCE AE          	div a, b
0417+  0DCF 07 E5 0D    	call print_zero_or_space
0418+  0DD2 11          	mov a, b
0419+  0DD3 26 0A 00    	mov b, 10
0420+  0DD6 AE          	div a, b
0421+  0DD7 07 E5 0D    	call print_zero_or_space
0422+  0DDA 11          	mov a, b
0423+  0DDB 6A 30       	add al, $30
0424+  0DDD 23          	mov ah, al
0425+  0DDE 19 00       	mov al, 0
0426+  0DE0 05 03       	syscall sys_io	; print coeff
0427+  0DE2 E5          	pop b
0428+  0DE3 E4          	pop a
0429+  0DE4 09          	ret
0430+  0DE5             
0431+  0DE5             
0432+  0DE5             ;;;;;;;;;;;;;;;;;;;;;;;;;;;;;;;;;;;;;;;;;;;;;;;;;;;;;;;;;;;;;;;;;;;;;;;;;;;;;;;;;;;;;;;
0433+  0DE5             ; if A == 0, print space
0434+  0DE5             ; else print A
0435+  0DE5             ;;;;;;;;;;;;;;;;;;;;;;;;;;;;;;;;;;;;;;;;;;;;;;;;;;;;;;;;;;;;;;;;;;;;;;;;;;;;;;;;;;;;;;;
0436+  0DE5             print_zero_or_space:
0437+  0DE5             	; cmp a, 0
0438+  0DE5             	; jne print_number
0439+  0DE5             	; mov ah, $20
0440+  0DE5             	; call putchar
0441+  0DE5             	; ret
0442+  0DE5             print_number:
0443+  0DE5 6A 30       	add al, $30
0444+  0DE7 23          	mov ah, al
0445+  0DE8 07 5B 0C    	call putchar
0446+  0DEB 09          	ret
0447+  0DEC             
0448+  0DEC             ;;;;;;;;;;;;;;;;;;;;;;;;;;;;;;;;;;;;;;;;;;;;;;;;;;;;;;;;;;;;;;;;;;;;;;;;;;;;;;;;;;;;;;;;;;;;;;;;;;;;;;;;;;;;;;;;;;
0449+  0DEC             ; PRINT 16BIT HEX INTEGER
0450+  0DEC             ; integer value in reg B
0451+  0DEC             ;;;;;;;;;;;;;;;;;;;;;;;;;;;;;;;;;;;;;;;;;;;;;;;;;;;;;;;;;;;;;;;;;;;;;;;;;;;;;;;;;;;;;;;;;;;;;;;;;;;;;;;;;;;;;;;;;;
0452+  0DEC             print_u16x:
0453+  0DEC D7          	push a
0454+  0DED D8          	push b
0455+  0DEE DD          	push bl
0456+  0DEF 30          	mov bl, bh
0457+  0DF0 07 22 0C    	call itoa				; convert bh to char in A
0458+  0DF3 2F          	mov bl, al				; save al
0459+  0DF4 19 00       	mov al, 0
0460+  0DF6 05 03       	syscall sys_io				; display AH
0461+  0DF8 24          	mov ah, bl				; retrieve al
0462+  0DF9 19 00       	mov al, 0
0463+  0DFB 05 03       	syscall sys_io				; display AL
0464+  0DFD             
0465+  0DFD EA          	pop bl
0466+  0DFE 07 22 0C    	call itoa				; convert bh to char in A
0467+  0E01 2F          	mov bl, al				; save al
0468+  0E02 19 00       	mov al, 0
0469+  0E04 05 03       	syscall sys_io				; display AH
0470+  0E06 24          	mov ah, bl				; retrieve al
0471+  0E07 19 00       	mov al, 0
0472+  0E09 05 03       	syscall sys_io				; display AL
0473+  0E0B             
0474+  0E0B E5          	pop b
0475+  0E0C E4          	pop a
0476+  0E0D 09          	ret
0477+  0E0E             
0478+  0E0E             ;;;;;;;;;;;;;;;;;;;;;;;;;;;;;;;;;;;;;;;;;;;;;;;;;;;;;;;;;;;;;;;;;;;;;;;;;;;;;;;;;;;;;;;;;;;;;;;;;;;;;;;;;;;;;;;;;;
0479+  0E0E             ; INPUT 16BIT HEX INTEGER
0480+  0E0E             ; read 16bit integer into A
0481+  0E0E             ;;;;;;;;;;;;;;;;;;;;;;;;;;;;;;;;;;;;;;;;;;;;;;;;;;;;;;;;;;;;;;;;;;;;;;;;;;;;;;;;;;;;;;;;;;;;;;;;;;;;;;;;;;;;;;;;;;
0482+  0E0E             scan_u16x:
0483+  0E0E F8 10 00    	enter 16
0484+  0E11 D8          	push b
0485+  0E12 DA          	push d
0486+  0E13             
0487+  0E13 FA F1 FF    	lea d, [bp + -15]
0488+  0E16 07 62 0C    	call gets				; get number
0489+  0E19             
0490+  0E19 32          	mov bl, [d]
0491+  0E1A 37          	mov bh, bl
0492+  0E1B 33 01 00    	mov bl, [d + 1]
0493+  0E1E 07 10 0C    	call atoi				; convert to int in AL
0494+  0E21 23          	mov ah, al				; move to AH
0495+  0E22             
0496+  0E22 33 02 00    	mov bl, [d + 2]
0497+  0E25 37          	mov bh, bl
0498+  0E26 33 03 00    	mov bl, [d + 3]
0499+  0E29 07 10 0C    	call atoi				; convert to int in AL
0500+  0E2C             
0501+  0E2C E7          	pop d
0502+  0E2D E5          	pop b
0503+  0E2E F9          	leave
0504+  0E2F 09          	ret
0505+  0E30             
0506+  0E30             ;;;;;;;;;;;;;;;;;;;;;;;;;;;;;;;;;;;;;;;;;;;;;;;;;;;;;;;;;;;;;;;;;;;;;;;;;;;;;;;;;;;;;;;;;;;;;;;;;;;;;;;;;;;;;;;;;;
0507+  0E30             ; PRINT 8bit HEX INTEGER
0508+  0E30             ; integer value in reg bl
0509+  0E30             ;;;;;;;;;;;;;;;;;;;;;;;;;;;;;;;;;;;;;;;;;;;;;;;;;;;;;;;;;;;;;;;;;;;;;;;;;;;;;;;;;;;;;;;;;;;;;;;;;;;;;;;;;;;;;;;;;;
0510+  0E30             print_u8x:
0511+  0E30 D7          	push a
0512+  0E31 DD          	push bl
0513+  0E32             
0514+  0E32 07 22 0C    	call itoa				; convert bl to char in A
0515+  0E35 2F          	mov bl, al				; save al
0516+  0E36 19 00       	mov al, 0
0517+  0E38 05 03       	syscall sys_io				; display AH
0518+  0E3A 24          	mov ah, bl				; retrieve al
0519+  0E3B 19 00       	mov al, 0
0520+  0E3D 05 03       	syscall sys_io				; display AL
0521+  0E3F             
0522+  0E3F EA          	pop bl
0523+  0E40 E4          	pop a
0524+  0E41 09          	ret
0525+  0E42             
0526+  0E42             ;;;;;;;;;;;;;;;;;;;;;;;;;;;;;;;;;;;;;;;;;;;;;;;;;;;;;;;;;;;;;;;;;;;;;;;;;;;;;;;;;;;;;;;
0527+  0E42             ; print 8bit decimal unsigned number
0528+  0E42             ; input number in AL
0529+  0E42             ;;;;;;;;;;;;;;;;;;;;;;;;;;;;;;;;;;;;;;;;;;;;;;;;;;;;;;;;;;;;;;;;;;;;;;;;;;;;;;;;;;;;;;;
0530+  0E42             print_u8d:
0531+  0E42 D7          	push a
0532+  0E43 D8          	push b
0533+  0E44             
0534+  0E44 22 00       	mov ah, 0
0535+  0E46 26 64 00    	mov b, 100
0536+  0E49 AE          	div a, b
0537+  0E4A D8          	push b			; save remainder
0538+  0E4B B9 00       	cmp al, 0
0539+  0E4D C6 57 0E    	je skip100
0540+  0E50 6A 30       	add al, $30
0541+  0E52 23          	mov ah, al
0542+  0E53 19 00       	mov al, 0
0543+  0E55 05 03       	syscall sys_io	; print coeff
0544+  0E57             skip100:
0545+  0E57 E4          	pop a
0546+  0E58 22 00       	mov ah, 0
0547+  0E5A 26 0A 00    	mov b, 10
0548+  0E5D AE          	div a, b
0549+  0E5E D8          	push b			; save remainder
0550+  0E5F B9 00       	cmp al, 0
0551+  0E61 C6 6B 0E    	je skip10
0552+  0E64 6A 30       	add al, $30
0553+  0E66 23          	mov ah, al
0554+  0E67 19 00       	mov al, 0
0555+  0E69 05 03       	syscall sys_io	; print coeff
0556+  0E6B             skip10:
0557+  0E6B E4          	pop a
0558+  0E6C 1B          	mov al, bl
0559+  0E6D 6A 30       	add al, $30
0560+  0E6F 23          	mov ah, al
0561+  0E70 19 00       	mov al, 0
0562+  0E72 05 03       	syscall sys_io	; print coeff
0563+  0E74 E5          	pop b
0564+  0E75 E4          	pop a
0565+  0E76 09          	ret
0566+  0E77             
0567+  0E77             ;;;;;;;;;;;;;;;;;;;;;;;;;;;;;;;;;;;;;;;;;;;;;;;;;;;;;;;;;;;;;;;;;;;;;;;;;;;;;;;;;;;;;;;;;;;;;;;;;;;;;;;;;;;;;;;;;;
0568+  0E77             ; INPUT 8BIT HEX INTEGER
0569+  0E77             ; read 8bit integer into AL
0570+  0E77             ;;;;;;;;;;;;;;;;;;;;;;;;;;;;;;;;;;;;;;;;;;;;;;;;;;;;;;;;;;;;;;;;;;;;;;;;;;;;;;;;;;;;;;;;;;;;;;;;;;;;;;;;;;;;;;;;;;
0571+  0E77             scan_u8x:
0572+  0E77 F8 04 00    	enter 4
0573+  0E7A D8          	push b
0574+  0E7B DA          	push d
0575+  0E7C             
0576+  0E7C FA FD FF    	lea d, [bp + -3]
0577+  0E7F 07 62 0C    	call gets				; get number
0578+  0E82             
0579+  0E82 32          	mov bl, [d]
0580+  0E83 37          	mov bh, bl
0581+  0E84 33 01 00    	mov bl, [d + 1]
0582+  0E87 07 10 0C    	call atoi				; convert to int in AL
0583+  0E8A             
0584+  0E8A E7          	pop d
0585+  0E8B E5          	pop b
0586+  0E8C F9          	leave
0587+  0E8D 09          	ret
0588+  0E8E             
0589+  0E8E             ;;;;;;;;;;;;;;;;;;;;;;;;;;;;;;;;;;;;;;;;;;;;;;;;;;;;;;;;;;;;;;;;;;;;;;;;;;;;;;;;;;;;;;;
0590+  0E8E             ; input decimal number
0591+  0E8E             ; result in A
0592+  0E8E             ; 655'\0'
0593+  0E8E             ; low--------high
0594+  0E8E             ;;;;;;;;;;;;;;;;;;;;;;;;;;;;;;;;;;;;;;;;;;;;;;;;;;;;;;;;;;;;;;;;;;;;;;;;;;;;;;;;;;;;;;;
0595+  0E8E             scan_u16d:
0596+  0E8E F8 08 00    	enter 8
0597+  0E91 E2          	push si
0598+  0E92 D8          	push b
0599+  0E93 D9          	push c
0600+  0E94 DA          	push d
0601+  0E95 FA F9 FF    	lea d, [bp +- 7]
0602+  0E98 07 62 0C    	call gets
0603+  0E9B 07 98 0B    	call strlen			; get string length in C
0604+  0E9E 7E          	dec c
0605+  0E9F FD 4E       	mov si, d
0606+  0EA1 12          	mov a, c
0607+  0EA2 FD 99       	shl a
0608+  0EA4 3B F8 0B    	mov d, table_power
0609+  0EA7 59          	add d, a
0610+  0EA8 38 00 00    	mov c, 0
0611+  0EAB             mul_loop:
0612+  0EAB F6          	lodsb			; load ASCII to al
0613+  0EAC B9 00       	cmp al, 0
0614+  0EAE C6 C1 0E    	je mul_exit
0615+  0EB1 6F 30       	sub al, $30		; make into integer
0616+  0EB3 22 00       	mov ah, 0
0617+  0EB5 2A          	mov b, [d]
0618+  0EB6 AC          	mul a, b			; result in B since it fits in 16bits
0619+  0EB7 11          	mov a, b
0620+  0EB8 28          	mov b, c
0621+  0EB9 54          	add a, b
0622+  0EBA 39          	mov c, a
0623+  0EBB 63 02 00    	sub d, 2
0624+  0EBE 0A AB 0E    	jmp mul_loop
0625+  0EC1             mul_exit:
0626+  0EC1 12          	mov a, c
0627+  0EC2 E7          	pop d
0628+  0EC3 E6          	pop c
0629+  0EC4 E5          	pop b
0630+  0EC5 EF          	pop si
0631+  0EC6 F9          	leave
0632+  0EC7 09          	ret
0488   0EC8             .include "ctype.asm"
0001+  0EC8             ;;;;;;;;;;;;;;;;;;;;;;;;;;;;;;;;;;;;;;;;;;;;;;;;;;;;;;;;;;;;;;;;;;;;;;;;;;;;;;;;;;;;;;;;;;;;;;;;;;;;;;;;;;;;;;;;;;
0002+  0EC8             ; ctype.s
0003+  0EC8             ;;;;;;;;;;;;;;;;;;;;;;;;;;;;;;;;;;;;;;;;;;;;;;;;;;;;;;;;;;;;;;;;;;;;;;;;;;;;;;;;;;;;;;;;;;;;;;;;;;;;;;;;;;;;;;;;;;
0004+  0EC8             
0005+  0EC8             ;;;;;;;;;;;;;;;;;;;;;;;;;;;;;;;;;;;;;;;;;;;;;;;;;;;;;;;;;;;;;;;;;;;;;;;;;;;;;;;;;;;;;;;;;;;;;;;;;;;;;;;;;;;;;;;;;;
0006+  0EC8             ;; C character classification is an operation provided by a group of functions in the ANSI C Standard Library
0007+  0EC8             ;; for the C programming language. These functions are used to test characters for membership in a particular
0008+  0EC8             ;; class of characters, such as alphabetic characters, control characters, etc. Both single-byte, and wide
0009+  0EC8             ;; characters are supported.
0010+  0EC8             ;;;;;;;;;;;;;;;;;;;;;;;;;;;;;;;;;;;;;;;;;;;;;;;;;;;;;;;;;;;;;;;;;;;;;;;;;;;;;;;;;;;;;;;;;;;;;;;;;;;;;;;;;;;;;;;;;;
0011+  0EC8             ;; isalnum 
0012+  0EC8             ;; isalpha 
0013+  0EC8             ;; islower 
0014+  0EC8             ;; isupper 
0015+  0EC8             ;; isdigit 
0016+  0EC8             ;; isxdigit
0017+  0EC8             ;; iscntrl 
0018+  0EC8             ;; isgraph 
0019+  0EC8             ;; isspace 
0020+  0EC8             ;; isblank 
0021+  0EC8             ;; isprint 
0022+  0EC8             ;; ispunct 
0023+  0EC8             ;; tolower 
0024+  0EC8             ;; toupper
0025+  0EC8             
0026+  0EC8             
0027+  0EC8             ;;;;;;;;;;;;;;;;;;;;;;;;;;;;;;;;;;;;;;;;;;;;;;;;;;;;;;;;;;;;;;;;;;;;;;;;;;;;;;;;;;
0028+  0EC8             ;; IS ALPHANUMERIC
0029+  0EC8             ;; sets ZF according with result
0030+  0EC8             ;;;;;;;;;;;;;;;;;;;;;;;;;;;;;;;;;;;;;;;;;;;;;;;;;;;;;;;;;;;;;;;;;;;;;;;;;;;;;;;;;;
0031+  0EC8             isalnum:
0032+  0EC8 07 E5 0E    	call isalpha
0033+  0ECB C6 D1 0E    	je isalnum_exit
0034+  0ECE 07 D2 0E    	call isdigit
0035+  0ED1             isalnum_exit:
0036+  0ED1 09          	ret	
0037+  0ED2             ;;;;;;;;;;;;;;;;;;;;;;;;;;;;;;;;;;;;;;;;;;;;;;;;;;;;;;;;;;;;;;;;;;;;;;;;;;;;;;;;;;
0038+  0ED2             ;; IS DIGIT
0039+  0ED2             ;; sets ZF according with result
0040+  0ED2             ;;;;;;;;;;;;;;;;;;;;;;;;;;;;;;;;;;;;;;;;;;;;;;;;;;;;;;;;;;;;;;;;;;;;;;;;;;;;;;;;;;
0041+  0ED2             isdigit:
0042+  0ED2 DB          	push al
0043+  0ED3 B9 30       	cmp al, '0'
0044+  0ED5 C8 E1 0E    	jlu isdigit_false
0045+  0ED8 B9 39       	cmp al, '9'
0046+  0EDA D1 E1 0E    	jgu isdigit_false
0047+  0EDD 87 00       	and al, 0	; set ZF
0048+  0EDF E8          	pop al
0049+  0EE0 09          	ret
0050+  0EE1             isdigit_false:
0051+  0EE1 8B 01       	or al, 1	; clear ZF
0052+  0EE3 E8          	pop al
0053+  0EE4 09          	ret	
0054+  0EE5             	
0055+  0EE5             ;;;;;;;;;;;;;;;;;;;;;;;;;;;;;;;;;;;;;;;;;;;;;;;;;;;;;;;;;;;;;;;;;;;;;;;;;;;;;;;;;;
0056+  0EE5             ;; IS ALPHA
0057+  0EE5             ;; sets ZF according with result
0058+  0EE5             ;;;;;;;;;;;;;;;;;;;;;;;;;;;;;;;;;;;;;;;;;;;;;;;;;;;;;;;;;;;;;;;;;;;;;;;;;;;;;;;;;;
0059+  0EE5             isalpha:
0060+  0EE5 DB          	push al
0061+  0EE6 B9 5F       	cmp al, '_'
0062+  0EE8 C6 08 0F    	je isalpha_true
0063+  0EEB B9 2E       	cmp al, '.'
0064+  0EED C6 08 0F    	je isalpha_true
0065+  0EF0 B9 41       	cmp al, 'A'
0066+  0EF2 C8 04 0F    	jlu isalpha_false
0067+  0EF5 B9 7A       	cmp al, 'z'
0068+  0EF7 D1 04 0F    	jgu isalpha_false
0069+  0EFA B9 5A       	cmp al, 'Z'
0070+  0EFC D0 08 0F    	jleu isalpha_true
0071+  0EFF B9 61       	cmp al, 'a'
0072+  0F01 C9 08 0F    	jgeu isalpha_true
0073+  0F04             isalpha_false:
0074+  0F04 8B 01       	or al, 1	; clear ZF
0075+  0F06 E8          	pop al
0076+  0F07 09          	ret
0077+  0F08             isalpha_true:
0078+  0F08 87 00       	and al, 0	; set ZF
0079+  0F0A E8          	pop al
0080+  0F0B 09          	ret
0081+  0F0C             
0082+  0F0C             ;;;;;;;;;;;;;;;;;;;;;;;;;;;;;;;;;;;;;;;;;;;;;;;;;;;;;;;;;;;;;;;;;;;;;;;;;;;;;;;;;;
0083+  0F0C             ;; IS PATH-ALPHA
0084+  0F0C             ;; sets ZF according with result
0085+  0F0C             ;;;;;;;;;;;;;;;;;;;;;;;;;;;;;;;;;;;;;;;;;;;;;;;;;;;;;;;;;;;;;;;;;;;;;;;;;;;;;;;;;;
0086+  0F0C             ispath:
0087+  0F0C DB          	push al
0088+  0F0D 07 D2 0E    	call isdigit
0089+  0F10 C6 3A 0F    	je ispath_true
0090+  0F13 B9 5F       	cmp al, '_'
0091+  0F15 C6 3A 0F    	je ispath_true
0092+  0F18 B9 2F       	cmp al, '/'
0093+  0F1A C6 3A 0F    	je ispath_true
0094+  0F1D B9 2E       	cmp al, '.'
0095+  0F1F C6 3A 0F    	je ispath_true
0096+  0F22 B9 41       	cmp al, 'A'
0097+  0F24 C8 36 0F    	jlu ispath_false
0098+  0F27 B9 7A       	cmp al, 'z'
0099+  0F29 D1 36 0F    	jgu ispath_false
0100+  0F2C B9 5A       	cmp al, 'Z'
0101+  0F2E D0 3A 0F    	jleu ispath_true
0102+  0F31 B9 61       	cmp al, 'a'
0103+  0F33 C9 3A 0F    	jgeu ispath_true
0104+  0F36             ispath_false:
0105+  0F36 8B 01       	or al, 1	; clear ZF
0106+  0F38 E8          	pop al
0107+  0F39 09          	ret
0108+  0F3A             ispath_true:
0109+  0F3A 87 00       	and al, 0	; set ZF
0110+  0F3C E8          	pop al
0111+  0F3D 09          	ret
0112+  0F3E             ;;;;;;;;;;;;;;;;;;;;;;;;;;;;;;;;;;;;;;;;;;;;;;;;;;;;;;;;;;;;;;;;;;;;;;;;;;;;;;;;;;
0113+  0F3E             ;; IS SPACE
0114+  0F3E             ;; sets ZF according with result
0115+  0F3E             ;;;;;;;;;;;;;;;;;;;;;;;;;;;;;;;;;;;;;;;;;;;;;;;;;;;;;;;;;;;;;;;;;;;;;;;;;;;;;;;;;;
0116+  0F3E             isspace:
0117+  0F3E B9 20       	cmp al, $20		; ' '
0118+  0F40 C6 54 0F    	je isspace_exit
0119+  0F43 B9 09       	cmp al, $09		; '\t'
0120+  0F45 C6 54 0F    	je isspace_exit
0121+  0F48 B9 0A       	cmp al, $0A		; '\n'
0122+  0F4A C6 54 0F    	je isspace_exit
0123+  0F4D B9 0D       	cmp al, $0D		; '\r'
0124+  0F4F C6 54 0F    	je isspace_exit
0125+  0F52 B9 0B       	cmp al, $0B		; '\v'
0126+  0F54             isspace_exit:
0127+  0F54 09          	ret	
0128+  0F55             
0129+  0F55             ;;;;;;;;;;;;;;;;;;;;;;;;;;;;;;;;;;;;;;;;;;;;;;;;;;;;;;;;;;;;;;;;;;;;;;;;;;;;;;;;;;;;;;;;;;;;;;;;;;;;;;;;;;;;;;;;;;
0130+  0F55             ; TO LOWER
0131+  0F55             ; input in AL
0132+  0F55             ; output in AL
0133+  0F55             ;;;;;;;;;;;;;;;;;;;;;;;;;;;;;;;;;;;;;;;;;;;;;;;;;;;;;;;;;;;;;;;;;;;;;;;;;;;;;;;;;;;;;;;;;;;;;;;;;;;;;;;;;;;;;;;;;;
0134+  0F55             to_lower:
0135+  0F55 B9 5A       	cmp al, 'Z'
0136+  0F57 D1 5C 0F    	jgu to_lower_ret
0137+  0F5A 6A 20       	add al, $20				; convert to lower case
0138+  0F5C             to_lower_ret:
0139+  0F5C 09          	ret
0140+  0F5D             ;;;;;;;;;;;;;;;;;;;;;;;;;;;;;;;;;;;;;;;;;;;;;;;;;;;;;;;;;;;;;;;;;;;;;;;;;;;;;;;;;;;;;;;;;;;;;;;;;;;;;;;;;;;;;;;;;;
0141+  0F5D             ; TO UPPER
0142+  0F5D             ; input in AL
0143+  0F5D             ; output in AL
0144+  0F5D             ;;;;;;;;;;;;;;;;;;;;;;;;;;;;;;;;;;;;;;;;;;;;;;;;;;;;;;;;;;;;;;;;;;;;;;;;;;;;;;;;;;;;;;;;;;;;;;;;;;;;;;;;;;;;;;;;;;
0145+  0F5D             to_upper:
0146+  0F5D B9 61       	cmp al, 'a'
0147+  0F5F C8 64 0F    	jlu to_upper_ret
0148+  0F62 6F 20       	sub al, $20			; convert to upper case
0149+  0F64             to_upper_ret:
0150+  0F64 09          	ret
0151+  0F65             
0489   0F65             .include "token.asm"
0001+  0F65             TOKTYP_IDENTIFIER	.equ 0
0002+  0F65             TOKTYP_KEYWORD		.equ 1
0003+  0F65             TOKTYP_DELIMITER	.equ 2
0004+  0F65             TOKTYP_STRING		.equ 3
0005+  0F65             TOKTYP_CHAR			.equ 4
0006+  0F65             TOKTYP_NUMERIC		.equ 5
0007+  0F65             TOKTYP_END			.equ 6
0008+  0F65             
0009+  0F65             TOK_NULL			.equ 0
0010+  0F65             TOK_FSLASH			.equ 1
0011+  0F65             TOK_TIMES 			.equ 2
0012+  0F65             TOK_PLUS 			.equ 3
0013+  0F65             TOK_MINUS 			.equ 4
0014+  0F65             TOK_DOT				.equ 5
0015+  0F65             TOK_SEMI			.equ 6
0016+  0F65             TOK_ANGLE			.equ 7
0017+  0F65             TOK_TILDE			.equ 8
0018+  0F65             TOK_EQUAL			.equ 9
0019+  0F65             TOK_COLON			.equ 10
0020+  0F65             TOK_COMMA			.equ 11
0021+  0F65             
0022+  0F65             TOK_END				.equ 20
0023+  0F65             
0024+  0F65             
0025+  0F65             ;;;;;;;;;;;;;;;;;;;;;;;;;;;;;;;;;;;;;;;;;;;;;;;;;;;;;;;;;;;;;;;;;;;;;;;;;;;;;;;;;;
0026+  0F65             ;; read a full command argment from shell input buffer
0027+  0F65             ;; argument is written into tokstr
0028+  0F65             ;;;;;;;;;;;;;;;;;;;;;;;;;;;;;;;;;;;;;;;;;;;;;;;;;;;;;;;;;;;;;;;;;;;;;;;;;;;;;;;;;;
0029+  0F65             get_arg:
0030+  0F65 D7          	push a
0031+  0F66 E2          	push si
0032+  0F67 E3          	push di
0033+  0F68 19 00       	mov al, 0
0034+  0F6A 3D 93 11    	mov [tokstr], al			; nullify tokstr string
0035+  0F6D 14 8F 11    	mov a, [prog]
0036+  0F70 4D          	mov si, a
0037+  0F71 FD 4F 93 11 	mov di, tokstr
0038+  0F75             get_arg_skip_spaces:
0039+  0F75 F6          	lodsb
0040+  0F76 07 3E 0F    	call isspace
0041+  0F79 C6 75 0F    	je get_arg_skip_spaces
0042+  0F7C             get_arg_L0:
0043+  0F7C B9 3B       	cmp al, $3B				; check if is ';'
0044+  0F7E C6 8B 0F    	je get_arg_end
0045+  0F81 B9 00       	cmp al, 0
0046+  0F83 C6 8B 0F    	je get_arg_end			; check if end of input
0047+  0F86 F7          	stosb
0048+  0F87 F6          	lodsb
0049+  0F88 0A 7C 0F    	jmp get_arg_L0
0050+  0F8B             get_arg_end:
0051+  0F8B 19 00       	mov al, 0
0052+  0F8D F7          	stosb
0053+  0F8E D5 01 00    	sub si, 1
0054+  0F91 4E          	mov a, si
0055+  0F92 42 8F 11    	mov [prog], a		; update pointer
0056+  0F95 F0          	pop di
0057+  0F96 EF          	pop si
0058+  0F97 E4          	pop a
0059+  0F98 09          	ret
0060+  0F99             
0061+  0F99             ;;;;;;;;;;;;;;;;;;;;;;;;;;;;;;;;;;;;;;;;;;;;;;;;;;;;;;;;;;;;;;;;;;;;;;;;;;;;;;;;;;
0062+  0F99             ;; read a path formation from shell input buffer
0063+  0F99             ;; path is written into tokstr
0064+  0F99             ;; /usr/bin
0065+  0F99             ;;;;;;;;;;;;;;;;;;;;;;;;;;;;;;;;;;;;;;;;;;;;;;;;;;;;;;;;;;;;;;;;;;;;;;;;;;;;;;;;;;
0066+  0F99             get_path:
0067+  0F99 D7          	push a
0068+  0F9A E2          	push si
0069+  0F9B E3          	push di
0070+  0F9C 19 00       	mov al, 0
0071+  0F9E 3D 93 11    	mov [tokstr], al			; nullify tokstr string
0072+  0FA1 14 8F 11    	mov a, [prog]
0073+  0FA4 4D          	mov si, a
0074+  0FA5 FD 4F 93 11 	mov di, tokstr
0075+  0FA9             get_path_skip_spaces:
0076+  0FA9 F6          	lodsb
0077+  0FAA 07 3E 0F    	call isspace
0078+  0FAD C6 A9 0F    	je get_path_skip_spaces
0079+  0FB0             get_path_is_pathchar:
0080+  0FB0 F7          	stosb
0081+  0FB1 F6          	lodsb
0082+  0FB2 07 C8 0E    	call isalnum			;check if is alphanumeric
0083+  0FB5 C6 B0 0F    	je get_path_is_pathchar
0084+  0FB8 B9 2F       	cmp al, '/'				; check if is '/'
0085+  0FBA C6 B0 0F    	je get_path_is_pathchar
0086+  0FBD 19 00       	mov al, 0
0087+  0FBF F7          	stosb
0088+  0FC0 D5 01 00    	sub si, 1
0089+  0FC3 4E          	mov a, si
0090+  0FC4 42 8F 11    	mov [prog], a		; update pointer
0091+  0FC7             get_path_end:
0092+  0FC7 F0          	pop di
0093+  0FC8 EF          	pop si
0094+  0FC9 E4          	pop a
0095+  0FCA 09          	ret
0096+  0FCB             
0097+  0FCB             ;;;;;;;;;;;;;;;;;;;;;;;;;;;;;;;;;;;;;;;;;;;;;;;;;;;;;;;;;;;;;;;;;;;;;;;;;;;;;;;;;;
0098+  0FCB             ;; read a line
0099+  0FCB             ;; line is written into tokstr
0100+  0FCB             ;;;;;;;;;;;;;;;;;;;;;;;;;;;;;;;;;;;;;;;;;;;;;;;;;;;;;;;;;;;;;;;;;;;;;;;;;;;;;;;;;;
0101+  0FCB             get_line:
0102+  0FCB D7          	push a
0103+  0FCC E2          	push si
0104+  0FCD E3          	push di
0105+  0FCE 19 00       	mov al, 0
0106+  0FD0 3D 93 11    	mov [tokstr], al			; nullify tokstr string
0107+  0FD3 14 8F 11    	mov a, [prog]
0108+  0FD6 4D          	mov si, a
0109+  0FD7 FD 4F 93 11 	mov di, tokstr
0110+  0FDB             get_line_L0:
0111+  0FDB F6          	lodsb
0112+  0FDC B9 0A       	cmp al, $0A		; check for new line
0113+  0FDE C6 E5 0F    	je get_line_exit
0114+  0FE1 F7          	stosb
0115+  0FE2 0A DB 0F    	jmp get_line_L0
0116+  0FE5             get_line_exit:
0117+  0FE5 19 00       	mov al, 0
0118+  0FE7 F7          	stosb
0119+  0FE8 4E          	mov a, si
0120+  0FE9 42 8F 11    	mov [prog], a		; update pointer
0121+  0FEC F0          	pop di
0122+  0FED EF          	pop si
0123+  0FEE E4          	pop a
0124+  0FEF 09          	ret
0125+  0FF0             
0126+  0FF0             ;;;;;;;;;;;;;;;;;;;;;;;;;;;;;;;;;;;;;;;;;;;;;;;;;;;;;;;;;;;;;;;;;;;;;;;;;;;;;;;;;;
0127+  0FF0             ;; token parser
0128+  0FF0             ;;;;;;;;;;;;;;;;;;;;;;;;;;;;;;;;;;;;;;;;;;;;;;;;;;;;;;;;;;;;;;;;;;;;;;;;;;;;;;;;;;
0129+  0FF0             get_token:
0130+  0FF0 D7          	push a
0131+  0FF1 DA          	push d
0132+  0FF2 E2          	push si
0133+  0FF3 E3          	push di
0134+  0FF4 19 00       	mov al, 0
0135+  0FF6 3D 93 11    	mov [tokstr], al			; nullify tokstr string
0136+  0FF9 19 00       	mov al, TOK_NULL
0137+  0FFB 3D 92 11    	mov [tok], al				; nullify token
0138+  0FFE 14 8F 11    	mov a, [prog]
0139+  1001 4D          	mov si, a
0140+  1002 FD 4F 93 11 	mov di, tokstr
0141+  1006             get_tok_skip_spaces:
0142+  1006 F6          	lodsb
0143+  1007 07 3E 0F    	call isspace
0144+  100A C6 06 10    	je get_tok_skip_spaces
0145+  100D B9 00       	cmp al, 0			; check for end of input (NULL)
0146+  100F C6 F4 10    	je get_token_end
0147+  1012 B9 23       	cmp al, '#'			; comments!
0148+  1014 C6 22 11    	je get_tok_comment
0149+  1017 07 C8 0E    	call isalnum
0150+  101A C6 01 11    	jz is_alphanumeric
0151+  101D             ; other token types
0152+  101D             get_token_slash:
0153+  101D B9 2F       	cmp al, '/'				; check if '/'
0154+  101F C7 37 10    	jne get_token_minus
0155+  1022 F7          	stosb					; store '/' into token string
0156+  1023 19 00       	mov al, 0
0157+  1025 F7          	stosb					; terminate token string
0158+  1026 19 01       	mov al, TOK_FSLASH
0159+  1028 3D 92 11    	mov [tok], al			
0160+  102B 19 02       	mov al, TOKTYP_DELIMITER
0161+  102D 3D 91 11    	mov [toktyp], al
0162+  1030 4E          	mov a, si
0163+  1031 42 8F 11    	mov [prog], a		; update pointer
0164+  1034 0A 1D 11    	jmp get_token_return
0165+  1037             get_token_minus:
0166+  1037 B9 2D       	cmp al, '-'				; check if '-'
0167+  1039 C7 51 10    	jne get_token_comma
0168+  103C F7          	stosb					; store '-' into token string
0169+  103D 19 00       	mov al, 0
0170+  103F F7          	stosb					; terminate token string
0171+  1040 19 04       	mov al, TOK_MINUS
0172+  1042 3D 92 11    	mov [tok], al			
0173+  1045 19 02       	mov al, TOKTYP_DELIMITER
0174+  1047 3D 91 11    	mov [toktyp], al
0175+  104A 4E          	mov a, si
0176+  104B 42 8F 11    	mov [prog], a		; update pointer
0177+  104E 0A 1D 11    	jmp get_token_return
0178+  1051             get_token_comma:
0179+  1051 B9 2C       	cmp al, ','				; check if ','
0180+  1053 C7 6B 10    	jne get_token_semi
0181+  1056 F7          	stosb					; store ',' into token string
0182+  1057 19 00       	mov al, 0
0183+  1059 F7          	stosb					; terminate token string
0184+  105A 19 0B       	mov al, TOK_COMMA
0185+  105C 3D 92 11    	mov [tok], al			
0186+  105F 19 02       	mov al, TOKTYP_DELIMITER
0187+  1061 3D 91 11    	mov [toktyp], al
0188+  1064 4E          	mov a, si
0189+  1065 42 8F 11    	mov [prog], a		; update pointer
0190+  1068 0A 1D 11    	jmp get_token_return
0191+  106B             get_token_semi:
0192+  106B B9 3B       	cmp al, $3B				; check if ';'
0193+  106D C7 85 10    	jne get_token_colon
0194+  1070 F7          	stosb					; store ';' into token string
0195+  1071 19 00       	mov al, 0
0196+  1073 F7          	stosb					; terminate token string
0197+  1074 19 06       	mov al, TOK_SEMI
0198+  1076 3D 92 11    	mov [tok], al			
0199+  1079 19 02       	mov al, TOKTYP_DELIMITER
0200+  107B 3D 91 11    	mov [toktyp], al
0201+  107E 4E          	mov a, si
0202+  107F 42 8F 11    	mov [prog], a		; update pointer
0203+  1082 0A 1D 11    	jmp get_token_return
0204+  1085             get_token_colon:
0205+  1085 B9 3A       	cmp al, $3A				; check if ':'
0206+  1087 C7 9F 10    	jne get_token_angle
0207+  108A F7          	stosb					; store ':' into token string
0208+  108B 19 00       	mov al, 0
0209+  108D F7          	stosb					; terminate token string
0210+  108E 19 0A       	mov al, TOK_COLON
0211+  1090 3D 92 11    	mov [tok], al			
0212+  1093 19 02       	mov al, TOKTYP_DELIMITER
0213+  1095 3D 91 11    	mov [toktyp], al
0214+  1098 4E          	mov a, si
0215+  1099 42 8F 11    	mov [prog], a		; update pointer
0216+  109C 0A 1D 11    	jmp get_token_return
0217+  109F             get_token_angle:
0218+  109F B9 3E       	cmp al, $3E				; check if '>'
0219+  10A1 C7 B9 10    	jne get_token_tilde
0220+  10A4 F7          	stosb					; store '>' into token string
0221+  10A5 19 00       	mov al, 0
0222+  10A7 F7          	stosb					; terminate token string
0223+  10A8 19 07       	mov al, TOK_ANGLE
0224+  10AA 3D 92 11    	mov [tok], al			
0225+  10AD 19 02       	mov al, TOKTYP_DELIMITER
0226+  10AF 3D 91 11    	mov [toktyp], al
0227+  10B2 4E          	mov a, si
0228+  10B3 42 8F 11    	mov [prog], a		; update pointer
0229+  10B6 0A 1D 11    	jmp get_token_return
0230+  10B9             get_token_tilde:
0231+  10B9 B9 7E       	cmp al, '~'				; check if '~'
0232+  10BB C7 D3 10    	jne get_token_equal
0233+  10BE F7          	stosb					; store '~' into token string
0234+  10BF 19 00       	mov al, 0
0235+  10C1 F7          	stosb					; terminate token string
0236+  10C2 19 08       	mov al, TOK_TILDE
0237+  10C4 3D 92 11    	mov [tok], al			
0238+  10C7 19 02       	mov al, TOKTYP_DELIMITER
0239+  10C9 3D 91 11    	mov [toktyp], al
0240+  10CC 4E          	mov a, si
0241+  10CD 42 8F 11    	mov [prog], a		; update pointer
0242+  10D0 0A 1D 11    	jmp get_token_return
0243+  10D3             get_token_equal:
0244+  10D3 B9 3D       	cmp al, '='				; check if '='
0245+  10D5 C7 ED 10    	jne get_token_skip
0246+  10D8 F7          	stosb					; store '=' into token string
0247+  10D9 19 00       	mov al, 0
0248+  10DB F7          	stosb					; terminate token string
0249+  10DC 19 09       	mov al, TOK_EQUAL
0250+  10DE 3D 92 11    	mov [tok], al			
0251+  10E1 19 02       	mov al, TOKTYP_DELIMITER
0252+  10E3 3D 91 11    	mov [toktyp], al
0253+  10E6 4E          	mov a, si
0254+  10E7 42 8F 11    	mov [prog], a		; update pointer
0255+  10EA 0A 1D 11    	jmp get_token_return
0256+  10ED             get_token_skip:
0257+  10ED 4E          	mov a, si
0258+  10EE 42 8F 11    	mov [prog], a		; update pointer
0259+  10F1 0A 1D 11    	jmp get_token_return
0260+  10F4             get_token_end:				; end of file token
0261+  10F4 19 14       	mov al, TOK_END
0262+  10F6 3D 92 11    	mov [tok], al
0263+  10F9 19 06       	mov al, TOKTYP_END
0264+  10FB 3D 91 11    	mov [toktyp], al
0265+  10FE 0A 1D 11    	jmp get_token_return
0266+  1101             is_alphanumeric:
0267+  1101 F7          	stosb
0268+  1102 F6          	lodsb
0269+  1103 07 C8 0E    	call isalnum			;check if is alphanumeric
0270+  1106 C6 01 11    	jz is_alphanumeric
0271+  1109 B9 2E       	cmp al, $2E				; check if is '.'
0272+  110B C6 01 11    	je is_alphanumeric
0273+  110E 19 00       	mov al, 0
0274+  1110 F7          	stosb
0275+  1111 19 00       	mov al, TOKTYP_IDENTIFIER
0276+  1113 3D 91 11    	mov [toktyp], al
0277+  1116 D5 01 00    	sub si, 1
0278+  1119 4E          	mov a, si
0279+  111A 42 8F 11    	mov [prog], a		; update pointer
0280+  111D             get_token_return:
0281+  111D F0          	pop di
0282+  111E EF          	pop si
0283+  111F E7          	pop d
0284+  1120 E4          	pop a
0285+  1121 09          	ret
0286+  1122             get_tok_comment:
0287+  1122 F6          	lodsb
0288+  1123 B9 0A       	cmp al, $0A			; new line
0289+  1125 C7 22 11    	jne get_tok_comment
0290+  1128 0A 06 10    	jmp get_tok_skip_spaces
0291+  112B             
0292+  112B             
0293+  112B             get_number:
0294+  112B D7          	push a
0295+  112C DA          	push d
0296+  112D E2          	push si
0297+  112E E3          	push di
0298+  112F 19 00       	mov al, 0
0299+  1131 3D 93 11    	mov [tokstr], al			; nullify tokstr string
0300+  1134 19 00       	mov al, TOK_NULL
0301+  1136 3D 92 11    	mov [tok], al				; nullify token
0302+  1139 14 8F 11    	mov a, [prog]
0303+  113C 4D          	mov si, a
0304+  113D FD 4F 93 11 	mov di, tokstr
0305+  1141             get_number_skip_spaces:
0306+  1141 F6          	lodsb
0307+  1142 07 3E 0F    	call isspace
0308+  1145 C6 41 11    	je get_number_skip_spaces
0309+  1148 B9 00       	cmp al, 0			; check for end of input (NULL)
0310+  114A C7 5A 11    	jne get_number_L0
0311+  114D 19 14       	mov al, TOK_END
0312+  114F 3D 92 11    	mov [tok], al
0313+  1152 19 06       	mov al, TOKTYP_END
0314+  1154 3D 91 11    	mov [toktyp], al
0315+  1157 0A 71 11    	jmp get_number_return
0316+  115A             get_number_L0:
0317+  115A F7          	stosb
0318+  115B F6          	lodsb
0319+  115C 07 D2 0E    	call isdigit			;check if is numeric
0320+  115F C6 5A 11    	jz get_number_L0
0321+  1162 19 00       	mov al, 0
0322+  1164 F7          	stosb
0323+  1165 19 05       	mov al, TOKTYP_NUMERIC
0324+  1167 3D 91 11    	mov [toktyp], al
0325+  116A D5 01 00    	sub si, 1
0326+  116D 4E          	mov a, si
0327+  116E 42 8F 11    	mov [prog], a		; update pointer
0328+  1171             get_number_return:
0329+  1171 F0          	pop di
0330+  1172 EF          	pop si
0331+  1173 E7          	pop d
0332+  1174 E4          	pop a
0333+  1175 09          	ret
0334+  1176             
0335+  1176             ;;;;;;;;;;;;;;;;;;;;;;;;;;;;;;;;;;;;;;;;;;;;;;;;;;;;;;;;;;;;;;;;;;;;;;;;;;;;;;;;;;
0336+  1176             ;; PUT BACK TOKEN
0337+  1176             ;;;;;;;;;;;;;;;;;;;;;;;;;;;;;;;;;;;;;;;;;;;;;;;;;;;;;;;;;;;;;;;;;;;;;;;;;;;;;;;;;;	
0338+  1176             putback:
0339+  1176 D7          	push a
0340+  1177 E2          	push si
0341+  1178 FD 4D 93 11 	mov si, tokstr	
0342+  117C             putback_loop:
0343+  117C F6          	lodsb
0344+  117D B9 00       	cmp al, 0
0345+  117F C6 8C 11    	je putback_end
0346+  1182 14 8F 11    	mov a, [prog]
0347+  1185 7D          	dec a
0348+  1186 42 8F 11    	mov [prog], a			; update pointer
0349+  1189 0A 7C 11    	jmp putback_loop
0350+  118C             putback_end:
0351+  118C EF          	pop si
0352+  118D E4          	pop a
0353+  118E 09          	ret
0354+  118F             
0355+  118F             
0356+  118F             
0357+  118F             
0358+  118F 00 00       prog:		.dw 0			; pointer to current position in buffer
0359+  1191             
0360+  1191 00          toktyp: 	.db 0			; token type symbol
0361+  1192 00          tok:		.db 0			; current token symbol
0362+  1193 00 00 00 00 tokstr:		.fill 256, 0	; token as a string
0362+  1197 00 00 00 00 
0362+  119B 00 00 00 00 
0362+  119F 00 00 00 00 
0362+  11A3 00 00 00 00 
0362+  11A7 00 00 00 00 
0362+  11AB 00 00 00 00 
0362+  11AF 00 00 00 00 
0362+  11B3 00 00 00 00 
0362+  11B7 00 00 00 00 
0362+  11BB 00 00 00 00 
0362+  11BF 00 00 00 00 
0362+  11C3 00 00 00 00 
0362+  11C7 00 00 00 00 
0362+  11CB 00 00 00 00 
0362+  11CF 00 00 00 00 
0362+  11D3 00 00 00 00 
0362+  11D7 00 00 00 00 
0362+  11DB 00 00 00 00 
0362+  11DF 00 00 00 00 
0362+  11E3 00 00 00 00 
0362+  11E7 00 00 00 00 
0362+  11EB 00 00 00 00 
0362+  11EF 00 00 00 00 
0362+  11F3 00 00 00 00 
0362+  11F7 00 00 00 00 
0362+  11FB 00 00 00 00 
0362+  11FF 00 00 00 00 
0362+  1203 00 00 00 00 
0362+  1207 00 00 00 00 
0362+  120B 00 00 00 00 
0362+  120F 00 00 00 00 
0362+  1213 00 00 00 00 
0362+  1217 00 00 00 00 
0362+  121B 00 00 00 00 
0362+  121F 00 00 00 00 
0362+  1223 00 00 00 00 
0362+  1227 00 00 00 00 
0362+  122B 00 00 00 00 
0362+  122F 00 00 00 00 
0362+  1233 00 00 00 00 
0362+  1237 00 00 00 00 
0362+  123B 00 00 00 00 
0362+  123F 00 00 00 00 
0362+  1243 00 00 00 00 
0362+  1247 00 00 00 00 
0362+  124B 00 00 00 00 
0362+  124F 00 00 00 00 
0362+  1253 00 00 00 00 
0362+  1257 00 00 00 00 
0362+  125B 00 00 00 00 
0362+  125F 00 00 00 00 
0362+  1263 00 00 00 00 
0362+  1267 00 00 00 00 
0362+  126B 00 00 00 00 
0362+  126F 00 00 00 00 
0362+  1273 00 00 00 00 
0362+  1277 00 00 00 00 
0362+  127B 00 00 00 00 
0362+  127F 00 00 00 00 
0362+  1283 00 00 00 00 
0362+  1287 00 00 00 00 
0362+  128B 00 00 00 00 
0362+  128F 00 00 00 00 
0490   1293             
0491   1293 00 00 00 00 temp_data1:				.fill 256, 0
0491   1297 00 00 00 00 
0491   129B 00 00 00 00 
0491   129F 00 00 00 00 
0491   12A3 00 00 00 00 
0491   12A7 00 00 00 00 
0491   12AB 00 00 00 00 
0491   12AF 00 00 00 00 
0491   12B3 00 00 00 00 
0491   12B7 00 00 00 00 
0491   12BB 00 00 00 00 
0491   12BF 00 00 00 00 
0491   12C3 00 00 00 00 
0491   12C7 00 00 00 00 
0491   12CB 00 00 00 00 
0491   12CF 00 00 00 00 
0491   12D3 00 00 00 00 
0491   12D7 00 00 00 00 
0491   12DB 00 00 00 00 
0491   12DF 00 00 00 00 
0491   12E3 00 00 00 00 
0491   12E7 00 00 00 00 
0491   12EB 00 00 00 00 
0491   12EF 00 00 00 00 
0491   12F3 00 00 00 00 
0491   12F7 00 00 00 00 
0491   12FB 00 00 00 00 
0491   12FF 00 00 00 00 
0491   1303 00 00 00 00 
0491   1307 00 00 00 00 
0491   130B 00 00 00 00 
0491   130F 00 00 00 00 
0491   1313 00 00 00 00 
0491   1317 00 00 00 00 
0491   131B 00 00 00 00 
0491   131F 00 00 00 00 
0491   1323 00 00 00 00 
0491   1327 00 00 00 00 
0491   132B 00 00 00 00 
0491   132F 00 00 00 00 
0491   1333 00 00 00 00 
0491   1337 00 00 00 00 
0491   133B 00 00 00 00 
0491   133F 00 00 00 00 
0491   1343 00 00 00 00 
0491   1347 00 00 00 00 
0491   134B 00 00 00 00 
0491   134F 00 00 00 00 
0491   1353 00 00 00 00 
0491   1357 00 00 00 00 
0491   135B 00 00 00 00 
0491   135F 00 00 00 00 
0491   1363 00 00 00 00 
0491   1367 00 00 00 00 
0491   136B 00 00 00 00 
0491   136F 00 00 00 00 
0491   1373 00 00 00 00 
0491   1377 00 00 00 00 
0491   137B 00 00 00 00 
0491   137F 00 00 00 00 
0491   1383 00 00 00 00 
0491   1387 00 00 00 00 
0491   138B 00 00 00 00 
0491   138F 00 00 00 00 
0492   1393 00 00 00 00 temp_data:				.fill 512, 0
0492   1397 00 00 00 00 
0492   139B 00 00 00 00 
0492   139F 00 00 00 00 
0492   13A3 00 00 00 00 
0492   13A7 00 00 00 00 
0492   13AB 00 00 00 00 
0492   13AF 00 00 00 00 
0492   13B3 00 00 00 00 
0492   13B7 00 00 00 00 
0492   13BB 00 00 00 00 
0492   13BF 00 00 00 00 
0492   13C3 00 00 00 00 
0492   13C7 00 00 00 00 
0492   13CB 00 00 00 00 
0492   13CF 00 00 00 00 
0492   13D3 00 00 00 00 
0492   13D7 00 00 00 00 
0492   13DB 00 00 00 00 
0492   13DF 00 00 00 00 
0492   13E3 00 00 00 00 
0492   13E7 00 00 00 00 
0492   13EB 00 00 00 00 
0492   13EF 00 00 00 00 
0492   13F3 00 00 00 00 
0492   13F7 00 00 00 00 
0492   13FB 00 00 00 00 
0492   13FF 00 00 00 00 
0492   1403 00 00 00 00 
0492   1407 00 00 00 00 
0492   140B 00 00 00 00 
0492   140F 00 00 00 00 
0492   1413 00 00 00 00 
0492   1417 00 00 00 00 
0492   141B 00 00 00 00 
0492   141F 00 00 00 00 
0492   1423 00 00 00 00 
0492   1427 00 00 00 00 
0492   142B 00 00 00 00 
0492   142F 00 00 00 00 
0492   1433 00 00 00 00 
0492   1437 00 00 00 00 
0492   143B 00 00 00 00 
0492   143F 00 00 00 00 
0492   1443 00 00 00 00 
0492   1447 00 00 00 00 
0492   144B 00 00 00 00 
0492   144F 00 00 00 00 
0492   1453 00 00 00 00 
0492   1457 00 00 00 00 
0492   145B 00 00 00 00 
0492   145F 00 00 00 00 
0492   1463 00 00 00 00 
0492   1467 00 00 00 00 
0492   146B 00 00 00 00 
0492   146F 00 00 00 00 
0492   1473 00 00 00 00 
0492   1477 00 00 00 00 
0492   147B 00 00 00 00 
0492   147F 00 00 00 00 
0492   1483 00 00 00 00 
0492   1487 00 00 00 00 
0492   148B 00 00 00 00 
0492   148F 00 00 00 00 
0492   1493 00 00 00 00 
0492   1497 00 00 00 00 
0492   149B 00 00 00 00 
0492   149F 00 00 00 00 
0492   14A3 00 00 00 00 
0492   14A7 00 00 00 00 
0492   14AB 00 00 00 00 
0492   14AF 00 00 00 00 
0492   14B3 00 00 00 00 
0492   14B7 00 00 00 00 
0492   14BB 00 00 00 00 
0492   14BF 00 00 00 00 
0492   14C3 00 00 00 00 
0492   14C7 00 00 00 00 
0492   14CB 00 00 00 00 
0492   14CF 00 00 00 00 
0492   14D3 00 00 00 00 
0492   14D7 00 00 00 00 
0492   14DB 00 00 00 00 
0492   14DF 00 00 00 00 
0492   14E3 00 00 00 00 
0492   14E7 00 00 00 00 
0492   14EB 00 00 00 00 
0492   14EF 00 00 00 00 
0492   14F3 00 00 00 00 
0492   14F7 00 00 00 00 
0492   14FB 00 00 00 00 
0492   14FF 00 00 00 00 
0492   1503 00 00 00 00 
0492   1507 00 00 00 00 
0492   150B 00 00 00 00 
0492   150F 00 00 00 00 
0492   1513 00 00 00 00 
0492   1517 00 00 00 00 
0492   151B 00 00 00 00 
0492   151F 00 00 00 00 
0492   1523 00 00 00 00 
0492   1527 00 00 00 00 
0492   152B 00 00 00 00 
0492   152F 00 00 00 00 
0492   1533 00 00 00 00 
0492   1537 00 00 00 00 
0492   153B 00 00 00 00 
0492   153F 00 00 00 00 
0492   1543 00 00 00 00 
0492   1547 00 00 00 00 
0492   154B 00 00 00 00 
0492   154F 00 00 00 00 
0492   1553 00 00 00 00 
0492   1557 00 00 00 00 
0492   155B 00 00 00 00 
0492   155F 00 00 00 00 
0492   1563 00 00 00 00 
0492   1567 00 00 00 00 
0492   156B 00 00 00 00 
0492   156F 00 00 00 00 
0492   1573 00 00 00 00 
0492   1577 00 00 00 00 
0492   157B 00 00 00 00 
0492   157F 00 00 00 00 
0492   1583 00 00 00 00 
0492   1587 00 00 00 00 
0492   158B 00 00 00 00 
0492   158F 00 00 00 00 
0493   1593             shell_transient_area:	; shell transient data area
0494   1593             
0495   1593             .end
tasm: Number of errors = 0
