0001   0000             .include "kernel.exp"
0001+  0000             PROC_TEXT_ORG    .EQU  $0400
0002+  0000             sys_bkpt         .EQU  $0000
0003+  0000             sys_rtc          .EQU  $0001
0004+  0000             sys_IDE          .EQU  $0002
0005+  0000             sys_io           .EQU  $0003
0006+  0000             sys_fileio       .EQU  $0004
0007+  0000             sys_fork         .EQU  $0005
0008+  0000             sys_list         .EQU  $0006
0009+  0000             sys_datetime     .EQU  $0007
0010+  0000             sys_reboot       .EQU  $0008
0011+  0000             sys_pauseproc    .EQU  $0009
0012+  0000             sys_resumeproc   .EQU  $000a
0013+  0000             sys_terminate_proc .EQU  $000b
0014+  0000             sys_system       .EQU  $000c
0015+  0000             sys_boot_install .EQU  $000d
0002   0000             
0003   0000             ;;;;;;;;;;;;;;;;;;;;;;;;;;;;;;;;;;;;;;;;;;;;;;;;;;;;;;;;;;;;;;;;;;;;;;;;;;;;;;;;
0004   0000             ;; uname
0005   0000             ;;;;;;;;;;;;;;;;;;;;;;;;;;;;;;;;;;;;;;;;;;;;;;;;;;;;;;;;;;;;;;;;;;;;;;;;;;;;;;;;
0006   0000             
0007   0400             .org PROC_TEXT_ORG			; origin at 1024
0008   0400             
0009   0400             cmd_ls:
0010   0400 19 00       	mov al, 0
0011   0402 05 0C       	syscall sys_system
0012   0404 05 0B       	syscall sys_terminate_proc
0013   0406             
0014   0406             
0015   0406             .include "stdio.asm"
0001+  0406             ;;;;;;;;;;;;;;;;;;;;;;;;;;;;;;;;;;;;;;;;;;;;;;;;;;;;;;;;;;;;;;;;;;;;;;;;;;;;;;;;;;;;;;;;;;;;;;;;;;;;;;;;;;;;;;;;;;
0002+  0406             ; stdio.s
0003+  0406             ;;;;;;;;;;;;;;;;;;;;;;;;;;;;;;;;;;;;;;;;;;;;;;;;;;;;;;;;;;;;;;;;;;;;;;;;;;;;;;;;;;;;;;;;;;;;;;;;;;;;;;;;;;;;;;;;;;
0004+  0406             .include "string.asm"
0001++ 0406             ;;;;;;;;;;;;;;;;;;;;;;;;;;;;;;;;;;;;;;;;;;;;;;;;;;;;;;;;;;;;;;;;;;;;;;;;;;;;;;;;;;;;;;;;;;;;;;;;;;;;;;;;;;;;;;;;;;
0002++ 0406             ; string.s
0003++ 0406             ;;;;;;;;;;;;;;;;;;;;;;;;;;;;;;;;;;;;;;;;;;;;;;;;;;;;;;;;;;;;;;;;;;;;;;;;;;;;;;;;;;;;;;;;;;;;;;;;;;;;;;;;;;;;;;;;;;
0004++ 0406             
0005++ 0406             
0006++ 0406             ;;;;;;;;;;;;;;;;;;;;;;;;;;;;;;;;;;;;;;;;;;;;;;;;;;;;;;;;;;;;;;;;;;;;;;;;;;;;;;;;;;;;;;;;;;;;;;;;;;;;;;;;;;;;;;;;;;
0007++ 0406             ; strrev
0008++ 0406             ; reverse a string
0009++ 0406             ; D = string address
0010++ 0406             ;;;;;;;;;;;;;;;;;;;;;;;;;;;;;;;;;;;;;;;;;;;;;;;;;;;;;;;;;;;;;;;;;;;;;;;;;;;;;;;;;;;;;;;;;;;;;;;;;;;;;;;;;;;;;;;;;;
0011++ 0406             ; 01234
0012++ 0406             strrev:
0013++ 0406 4B          	pusha
0014++ 0407 07 4D 04    	call strlen	; length in C
0015++ 040A 12          	mov a, c
0016++ 040B AF 01 00    	cmp a, 1
0017++ 040E D0 28 04    	jleu strrev_end	; check string length. string len must be > 1
0018++ 0411 7D          	dec a
0019++ 0412 FD 4E       	mov si, d	; beginning of string
0020++ 0414 FD 50       	mov di, d	; beginning of string (for destinations)
0021++ 0416 59          	add d, a	; end of string
0022++ 0417 12          	mov a, c
0023++ 0418 FD 9B       	shr a		; divide by 2
0024++ 041A 39          	mov c, a	; C now counts the steps
0025++ 041B             strrev_L0:
0026++ 041B 32          	mov bl, [d]	; save load right-side char into BL
0027++ 041C F6          	lodsb		; load left-side char into AL; increase SI
0028++ 041D 3E          	mov [d], al	; store left char into right side
0029++ 041E 1B          	mov al, bl
0030++ 041F F7          	stosb		; store right-side char into left-side; increase DI
0031++ 0420 7E          	dec c
0032++ 0421 7F          	dec d
0033++ 0422 C2 00 00    	cmp c, 0
0034++ 0425 C7 1B 04    	jne strrev_L0
0035++ 0428             strrev_end:
0036++ 0428 4C          	popa
0037++ 0429 09          	ret
0038++ 042A             	
0039++ 042A             ;;;;;;;;;;;;;;;;;;;;;;;;;;;;;;;;;;;;;;;;;;;;;;;;;;;;;;;;;;;;;;;;;;;;;;;;;;;;;;;;;;;;;;;;;;;;;;;;;;;;;;;;;;;;;;;;;;
0040++ 042A             ; strchr
0041++ 042A             ; search string in D for char in AL
0042++ 042A             ;;;;;;;;;;;;;;;;;;;;;;;;;;;;;;;;;;;;;;;;;;;;;;;;;;;;;;;;;;;;;;;;;;;;;;;;;;;;;;;;;;;;;;;;;;;;;;;;;;;;;;;;;;;;;;;;;;
0043++ 042A             strchr:
0044++ 042A             strchr_L0:
0045++ 042A 32          	mov bl, [d]
0046++ 042B C1 00       	cmp bl, 0
0047++ 042D C6 38 04    	je strchr_end
0048++ 0430 BA          	cmp al, bl
0049++ 0431 C6 38 04    	je strchr_end
0050++ 0434 79          	inc d
0051++ 0435 0A 2A 04    	jmp strchr_L0
0052++ 0438             strchr_end:
0053++ 0438 1B          	mov al, bl
0054++ 0439 09          	ret
0055++ 043A             
0056++ 043A             ;;;;;;;;;;;;;;;;;;;;;;;;;;;;;;;;;;;;;;;;;;;;;;;;;;;;;;;;;;;;;;;;;;;;;;;;;;;;;;;;;;;;;;;;;;;;;;;;;;;;;;;;;;;;;;;;;;
0057++ 043A             ; strstr
0058++ 043A             ; find sub-string
0059++ 043A             ; str1 in SI
0060++ 043A             ; str2 in DI
0061++ 043A             ; SI points to end of source string
0062++ 043A             ;;;;;;;;;;;;;;;;;;;;;;;;;;;;;;;;;;;;;;;;;;;;;;;;;;;;;;;;;;;;;;;;;;;;;;;;;;;;;;;;;;;;;;;;;;;;;;;;;;;;;;;;;;;;;;;;;;
0063++ 043A             strstr:
0064++ 043A DB          	push al
0065++ 043B DA          	push d
0066++ 043C E3          	push di
0067++ 043D             strstr_loop:
0068++ 043D F3          	cmpsb					; compare a byte of the strings
0069++ 043E C7 49 04    	jne strstr_ret
0070++ 0441 FC 00 00    	lea d, [di + 0]
0071++ 0444 BD 00       	cmp byte[d], 0				; check if at end of string (null)
0072++ 0446 C7 3D 04    	jne strstr_loop				; equal chars but not at end
0073++ 0449             strstr_ret:
0074++ 0449 F0          	pop di
0075++ 044A E7          	pop d
0076++ 044B E8          	pop al
0077++ 044C 09          	ret
0078++ 044D             ;;;;;;;;;;;;;;;;;;;;;;;;;;;;;;;;;;;;;;;;;;;;;;;;;;;;;;;;;;;;;;;;;;;;;;;;;;;;;;;;;;;;;;;
0079++ 044D             ; length of null terminated string
0080++ 044D             ; result in C
0081++ 044D             ; pointer in D
0082++ 044D             ;;;;;;;;;;;;;;;;;;;;;;;;;;;;;;;;;;;;;;;;;;;;;;;;;;;;;;;;;;;;;;;;;;;;;;;;;;;;;;;;;;;;;;;
0083++ 044D             strlen:
0084++ 044D DA          	push d
0085++ 044E 38 00 00    	mov c, 0
0086++ 0451             strlen_L1:
0087++ 0451 BD 00       	cmp byte [d], 0
0088++ 0453 C6 5B 04    	je strlen_ret
0089++ 0456 79          	inc d
0090++ 0457 78          	inc c
0091++ 0458 0A 51 04    	jmp strlen_L1
0092++ 045B             strlen_ret:
0093++ 045B E7          	pop d
0094++ 045C 09          	ret
0095++ 045D             
0096++ 045D             ;;;;;;;;;;;;;;;;;;;;;;;;;;;;;;;;;;;;;;;;;;;;;;;;;;;;;;;;;;;;;;;;;;;;;;;;;;;;;;;;;;;;;;;;;;;;;;;;;;;;;;;;;;;;;;;;;;
0097++ 045D             ; STRCMP
0098++ 045D             ; compare two strings
0099++ 045D             ; str1 in SI
0100++ 045D             ; str2 in DI
0101++ 045D             ; CREATE A STRING COMPAIRON INSTRUCION ?????
0102++ 045D             ;;;;;;;;;;;;;;;;;;;;;;;;;;;;;;;;;;;;;;;;;;;;;;;;;;;;;;;;;;;;;;;;;;;;;;;;;;;;;;;;;;;;;;;;;;;;;;;;;;;;;;;;;;;;;;;;;;
0103++ 045D             strcmp:
0104++ 045D DB          	push al
0105++ 045E DA          	push d
0106++ 045F E3          	push di
0107++ 0460 E2          	push si
0108++ 0461             strcmp_loop:
0109++ 0461 F3          	cmpsb					; compare a byte of the strings
0110++ 0462 C7 6D 04    	jne strcmp_ret
0111++ 0465 FB FF FF    	lea d, [si +- 1]
0112++ 0468 BD 00       	cmp byte[d], 0				; check if at end of string (null)
0113++ 046A C7 61 04    	jne strcmp_loop				; equal chars but not at end
0114++ 046D             strcmp_ret:
0115++ 046D EF          	pop si
0116++ 046E F0          	pop di
0117++ 046F E7          	pop d
0118++ 0470 E8          	pop al
0119++ 0471 09          	ret
0120++ 0472             
0121++ 0472             
0122++ 0472             ; STRCPY
0123++ 0472             ; copy null terminated string from SI to DI
0124++ 0472             ; source in SI
0125++ 0472             ; destination in DI
0126++ 0472             strcpy:
0127++ 0472 E2          	push si
0128++ 0473 E3          	push di
0129++ 0474 DB          	push al
0130++ 0475             strcpy_L1:
0131++ 0475 F6          	lodsb
0132++ 0476 F7          	stosb
0133++ 0477 B9 00       	cmp al, 0
0134++ 0479 C7 75 04    	jne strcpy_L1
0135++ 047C             strcpy_end:
0136++ 047C E8          	pop al
0137++ 047D F0          	pop di
0138++ 047E EF          	pop si
0139++ 047F 09          	ret
0140++ 0480             
0141++ 0480             ; STRCAT
0142++ 0480             ; concatenate a NULL terminated string into string at DI, from string at SI
0143++ 0480             ; source in SI
0144++ 0480             ; destination in DI
0145++ 0480             strcat:
0146++ 0480 E2          	push si
0147++ 0481 E3          	push di
0148++ 0482 D7          	push a
0149++ 0483 DA          	push d
0150++ 0484 50          	mov a, di
0151++ 0485 3C          	mov d, a
0152++ 0486             strcat_goto_end_L1:
0153++ 0486 BD 00       	cmp byte[d], 0
0154++ 0488 C6 8F 04    	je strcat_start
0155++ 048B 79          	inc d
0156++ 048C 0A 86 04    	jmp strcat_goto_end_L1
0157++ 048F             strcat_start:
0158++ 048F FD 50       	mov di, d
0159++ 0491             strcat_L1:
0160++ 0491 F6          	lodsb
0161++ 0492 F7          	stosb
0162++ 0493 B9 00       	cmp al, 0
0163++ 0495 C7 91 04    	jne strcat_L1
0164++ 0498             strcat_end:
0165++ 0498 E7          	pop d
0166++ 0499 E4          	pop a
0167++ 049A F0          	pop di
0168++ 049B EF          	pop si
0169++ 049C 09          	ret
0005+  049D             
0006+  049D 30 31 32 33 s_hex_digits:	.db "0123456789ABCDEF"	
0006+  04A1 34 35 36 37 
0006+  04A5 38 39 41 42 
0006+  04A9 43 44 45 46 
0007+  04AD             
0008+  04AD 01 00       table_power:.dw 1
0009+  04AF 0A 00       			.dw 10
0010+  04B1 64 00       			.dw 100
0011+  04B3 E8 03       			.dw 1000
0012+  04B5 10 27       			.dw 10000
0013+  04B7             
0014+  04B7             ;;;;;;;;;;;;;;;;;;;;;;;;;;;;;;;;;;;;;;;;;;;;;;;;;;;;;;;;;;;;;;;;;;;;;;;;;;;;;;;;;;;;;;;;;;;;;;;;;;;;;;;;;;;;;;;;;;
0015+  04B7             ; CONVERT ASCII 'O'..'F' TO INTEGER 0..15
0016+  04B7             ; ASCII in BL
0017+  04B7             ; result in AL
0018+  04B7             ; ascii for F = 0100 0110
0019+  04B7             ; ascii for 9 = 0011 1001
0020+  04B7             ;;;;;;;;;;;;;;;;;;;;;;;;;;;;;;;;;;;;;;;;;;;;;;;;;;;;;;;;;;;;;;;;;;;;;;;;;;;;;;;;;;;;;;;;;;;;;;;;;;;;;;;;;;;;;;;;;;
0021+  04B7             hex_ascii_encode:
0022+  04B7 1B          	mov al, bl
0023+  04B8 93 40       	test al, $40				; test if letter or number
0024+  04BA C7 C0 04    	jnz hex_letter
0025+  04BD 87 0F       	and al, $0F				; get number
0026+  04BF 09          	ret
0027+  04C0             hex_letter:
0028+  04C0 87 0F       	and al, $0F				; get letter
0029+  04C2 6A 09       	add al, 9
0030+  04C4 09          	ret
0031+  04C5             
0032+  04C5             ;;;;;;;;;;;;;;;;;;;;;;;;;;;;;;;;;;;;;;;;;;;;;;;;;;;;;;;;;;;;;;;;;;;;;;;;;;;;;;;;;;;;;;;;;;;;;;;;;;;;;;;;;;;;;;;;;;
0033+  04C5             ; ATOI
0034+  04C5             ; 2 letter hex string in B
0035+  04C5             ; 8bit integer returned in AL
0036+  04C5             ;;;;;;;;;;;;;;;;;;;;;;;;;;;;;;;;;;;;;;;;;;;;;;;;;;;;;;;;;;;;;;;;;;;;;;;;;;;;;;;;;;;;;;;;;;;;;;;;;;;;;;;;;;;;;;;;;;
0037+  04C5             atoi:
0038+  04C5 D8          	push b
0039+  04C6 07 B7 04    	call hex_ascii_encode			; convert BL to 4bit code in AL
0040+  04C9 30          	mov bl, bh
0041+  04CA DB          	push al					; save a
0042+  04CB 07 B7 04    	call hex_ascii_encode
0043+  04CE EA          	pop bl	
0044+  04CF FD 9E 04    	shl al, 4
0045+  04D2 8C          	or al, bl
0046+  04D3 E5          	pop b
0047+  04D4 09          	ret	
0048+  04D5             
0049+  04D5             
0050+  04D5             ;;;;;;;;;;;;;;;;;;;;;;;;;;;;;;;;;;;;;;;;;;;;;;;;;;;;;;;;;;;;;;;;;;;;;;;;;;;;;;;;;;;;;;;;;;;;;;;;;;;;;;;;;;;;;;;;;;
0051+  04D5             ; printf
0052+  04D5             ; no need for explanations!
0053+  04D5             ;;;;;;;;;;;;;;;;;;;;;;;;;;;;;;;;;;;;;;;;;;;;;;;;;;;;;;;;;;;;;;;;;;;;;;;;;;;;;;;;;;;;;;;;;;;;;;;;;;;;;;;;;;;;;;;;;;
0054+  04D5             printf:
0055+  04D5 09          	ret
0056+  04D6             
0057+  04D6             
0058+  04D6             ;;;;;;;;;;;;;;;;;;;;;;;;;;;;;;;;;;;;;;;;;;;;;;;;;;;;;;;;;;;;;;;;;;;;;;;;;;;;;;;;;;;;;;;;;;;;;;;;;;;;;;;;;;;;;;;;;;
0059+  04D6             ; scanf
0060+  04D6             ; no need for explanations!
0061+  04D6             ;;;;;;;;;;;;;;;;;;;;;;;;;;;;;;;;;;;;;;;;;;;;;;;;;;;;;;;;;;;;;;;;;;;;;;;;;;;;;;;;;;;;;;;;;;;;;;;;;;;;;;;;;;;;;;;;;;
0062+  04D6             scanf:
0063+  04D6 09          	ret
0064+  04D7             
0065+  04D7             ;;;;;;;;;;;;;;;;;;;;;;;;;;;;;;;;;;;;;;;;;;;;;;;;;;;;;;;;;;;;;;;;;;;;;;;;;;;;;;;;;;;;;;;;;;;;;;;;;;;;;;;;;;;;;;;;;;
0066+  04D7             ; ITOA
0067+  04D7             ; 8bit value in BL
0068+  04D7             ; 2 byte ASCII result in A
0069+  04D7             ;;;;;;;;;;;;;;;;;;;;;;;;;;;;;;;;;;;;;;;;;;;;;;;;;;;;;;;;;;;;;;;;;;;;;;;;;;;;;;;;;;;;;;;;;;;;;;;;;;;;;;;;;;;;;;;;;;
0070+  04D7             itoa:
0071+  04D7 DA          	push d
0072+  04D8 D8          	push b
0073+  04D9 A7 00       	mov bh, 0
0074+  04DB FD A4 04    	shr bl, 4	
0075+  04DE 74          	mov d, b
0076+  04DF 1F 9D 04    	mov al, [d + s_hex_digits]
0077+  04E2 23          	mov ah, al
0078+  04E3             	
0079+  04E3 E5          	pop b
0080+  04E4 D8          	push b
0081+  04E5 A7 00       	mov bh, 0
0082+  04E7 FD 87 0F    	and bl, $0F
0083+  04EA 74          	mov d, b
0084+  04EB 1F 9D 04    	mov al, [d + s_hex_digits]
0085+  04EE E5          	pop b
0086+  04EF E7          	pop d
0087+  04F0 09          	ret
0088+  04F1             
0089+  04F1             ;;;;;;;;;;;;;;;;;;;;;;;;;;;;;;;;;;;;;;;;;;;;;;;;;;;;;;;;;;;;;;;;;;;;;;;;;;;;;;;;;;;;;;;;;;;;;;;;;;;;;;;;;;;;;;;;;;
0090+  04F1             ; HEX STRING TO BINARY
0091+  04F1             ; di = destination address
0092+  04F1             ; si = source
0093+  04F1             ;;;;;;;;;;;;;;;;;;;;;;;;;;;;;;;;;;;;;;;;;;;;;;;;;;;;;;;;;;;;;;;;;;;;;;;;;;;;;;;;;;;;;;;;;;;;;;;;;;;;;;;;;;;;;;;;;;
0094+  04F1             hex_to_int:
0095+  04F1             hex_to_int_L1:
0096+  04F1 F6          	lodsb					; load from [SI] to AL
0097+  04F2 B9 00       	cmp al, 0				; check if ASCII 0
0098+  04F4 C6 01 05    	jz hex_to_int_ret
0099+  04F7 36          	mov bh, al
0100+  04F8 F6          	lodsb
0101+  04F9 2F          	mov bl, al
0102+  04FA 07 C5 04    	call atoi				; convert ASCII byte in B to int (to AL)
0103+  04FD F7          	stosb					; store AL to [DI]
0104+  04FE 0A F1 04    	jmp hex_to_int_L1
0105+  0501             hex_to_int_ret:
0106+  0501 09          	ret		
0107+  0502             
0108+  0502             
0109+  0502             
0110+  0502             ;;;;;;;;;;;;;;;;;;;;;;;;;;;;;;;;;;;;;;;;;;;;;;;;;;;;;;;;;;;;;;;;;;;;;;;;;;;;;;;;;;;;;;;;;;;;;;;;;;;;;;;;;;;;;;;;;;
0111+  0502             ; GETCHAR
0112+  0502             ; char in ah
0113+  0502             ;;;;;;;;;;;;;;;;;;;;;;;;;;;;;;;;;;;;;;;;;;;;;;;;;;;;;;;;;;;;;;;;;;;;;;;;;;;;;;;;;;;;;;;;;;;;;;;;;;;;;;;;;;;;;;;;;;
0114+  0502             getchar:
0115+  0502 DB          	push al
0116+  0503             getchar_retry:
0117+  0503 FD 0C       	sti
0118+  0505 19 01       	mov al, 1
0119+  0507 05 03       	syscall sys_io			; receive in AH
0120+  0509 B9 00       	cmp al, 0			; check if any char was receive
0121+  050B C6 03 05    	je getchar_retry
0122+  050E E8          	pop al
0123+  050F 09          	ret
0124+  0510             
0125+  0510             ;;;;;;;;;;;;;;;;;;;;;;;;;;;;;;;;;;;;;;;;;;;;;;;;;;;;;;;;;;;;;;;;;;;;;;;;;;;;;;;;;;;;;;;;;;;;;;;;;;;;;;;;;;;;;;;;;;
0126+  0510             ; PUTCHAR
0127+  0510             ; char in ah
0128+  0510             ;;;;;;;;;;;;;;;;;;;;;;;;;;;;;;;;;;;;;;;;;;;;;;;;;;;;;;;;;;;;;;;;;;;;;;;;;;;;;;;;;;;;;;;;;;;;;;;;;;;;;;;;;;;;;;;;;;
0129+  0510             putchar:
0130+  0510 D7          	push a
0131+  0511 19 00       	mov al, 0
0132+  0513 05 03       	syscall sys_io			; char in AH
0133+  0515 E4          	pop a
0134+  0516 09          	ret
0135+  0517             
0136+  0517             ;;;;;;;;;;;;;;;;;;;;;;;;;;;;;;;;;;;;;;;;;;;;;;;;;;;;;;;;;;;;;;;;;;;;;;;;;;;;;;;;;;;;;;;;;;;;;;;;;;;;;;;;;;;;;;;;;;
0137+  0517             ;; INPUT A STRING
0138+  0517             ;; terminates with null
0139+  0517             ;; pointer in D
0140+  0517             ;;;;;;;;;;;;;;;;;;;;;;;;;;;;;;;;;;;;;;;;;;;;;;;;;;;;;;;;;;;;;;;;;;;;;;;;;;;;;;;;;;;;;;;;;;;;;;;;;;;;;;;;;;;;;;;;;;
0141+  0517             gets:
0142+  0517 D7          	push a
0143+  0518 DA          	push d
0144+  0519             gets_loop:
0145+  0519 FD 0C       	sti
0146+  051B 19 01       	mov al, 1
0147+  051D 05 03       	syscall sys_io			; receive in AH
0148+  051F B9 00       	cmp al, 0				; check error code (AL)
0149+  0521 C6 19 05    	je gets_loop			; if no char received, retry
0150+  0524             
0151+  0524 76 1B       	cmp ah, 27
0152+  0526 C6 42 05    	je gets_telnet_escape
0153+  0529 76 0A       	cmp ah, $0A				; LF
0154+  052B C6 9B 05    	je gets_end
0155+  052E 76 5C       	cmp ah, $5C				; '\\'
0156+  0530 C6 72 05    	je gets_escape
0157+  0533             	
0158+  0533 76 08       	cmp ah, $08			; check for backspace
0159+  0535 C6 3E 05    	je gets_backspace
0160+  0538             
0161+  0538 1A          	mov al, ah
0162+  0539 3E          	mov [d], al
0163+  053A 79          	inc d
0164+  053B 0A 19 05    	jmp gets_loop
0165+  053E             gets_backspace:
0166+  053E 7F          	dec d
0167+  053F 0A 19 05    	jmp gets_loop
0168+  0542             gets_telnet_escape:
0169+  0542 FD 0C       	sti
0170+  0544 19 01       	mov al, 1
0171+  0546 05 03       	syscall sys_io				; receive in AH without echo
0172+  0548 B9 00       	cmp al, 0					; check error code (AL)
0173+  054A C6 42 05    	je gets_telnet_escape		; if no char received, retry
0174+  054D 76 5B       	cmp ah, '['
0175+  054F C7 19 05    	jne gets_loop
0176+  0552             gets_telnet_escape_phase2:
0177+  0552 FD 0C       	sti
0178+  0554 19 01       	mov al, 1
0179+  0556 05 03       	syscall sys_io					; receive in AH without echo
0180+  0558 B9 00       	cmp al, 0						; check error code (AL)
0181+  055A C6 52 05    	je gets_telnet_escape_phase2	; if no char received, retry
0182+  055D 76 44       	cmp ah, 'D'
0183+  055F C6 6A 05    	je gets_left_arrow
0184+  0562 76 43       	cmp ah, 'C'
0185+  0564 C6 6E 05    	je gets_right_arrow
0186+  0567 0A 19 05    	jmp gets_loop
0187+  056A             gets_left_arrow:
0188+  056A 7F          	dec d
0189+  056B 0A 19 05    	jmp gets_loop
0190+  056E             gets_right_arrow:
0191+  056E 79          	inc d
0192+  056F 0A 19 05    	jmp gets_loop
0193+  0572             gets_escape:
0194+  0572 FD 0C       	sti
0195+  0574 19 01       	mov al, 1
0196+  0576 05 03       	syscall sys_io			; receive in AH
0197+  0578 B9 00       	cmp al, 0				; check error code (AL)
0198+  057A C6 72 05    	je gets_escape			; if no char received, retry
0199+  057D 76 6E       	cmp ah, 'n'
0200+  057F C6 8D 05    	je gets_LF
0201+  0582 76 72       	cmp ah, 'r'
0202+  0584 C6 94 05    	je gets_CR
0203+  0587 1A          	mov al, ah				; if not a known escape, it is just a normal letter
0204+  0588 3E          	mov [d], al
0205+  0589 79          	inc d
0206+  058A 0A 19 05    	jmp gets_loop
0207+  058D             gets_LF:
0208+  058D 19 0A       	mov al, $0A
0209+  058F 3E          	mov [d], al
0210+  0590 79          	inc d
0211+  0591 0A 19 05    	jmp gets_loop
0212+  0594             gets_CR:
0213+  0594 19 0D       	mov al, $0D
0214+  0596 3E          	mov [d], al
0215+  0597 79          	inc d
0216+  0598 0A 19 05    	jmp gets_loop
0217+  059B             gets_end:
0218+  059B 19 00       	mov al, 0
0219+  059D 3E          	mov [d], al				; terminate string
0220+  059E E7          	pop d
0221+  059F E4          	pop a
0222+  05A0 09          	ret
0223+  05A1             
0224+  05A1             
0225+  05A1             
0226+  05A1             
0227+  05A1             ;;;;;;;;;;;;;;;;;;;;;;;;;;;;;;;;;;;;;;;;;;;;;;;;;;;;;;;;;;;;;;;;;;;;;;;;;;;;;;;;;;;;;;;;;;;;;;;;;;;;;;;;;;;;;;;;;;
0228+  05A1             ;; INPUT TEXT
0229+  05A1             ;; terminated with CTRL+D
0230+  05A1             ;; pointer in D
0231+  05A1             ;;;;;;;;;;;;;;;;;;;;;;;;;;;;;;;;;;;;;;;;;;;;;;;;;;;;;;;;;;;;;;;;;;;;;;;;;;;;;;;;;;;;;;;;;;;;;;;;;;;;;;;;;;;;;;;;;;
0232+  05A1             gettxt:
0233+  05A1 D7          	push a
0234+  05A2 DA          	push d
0235+  05A3             gettxt_loop:
0236+  05A3 19 01       	mov al, 1
0237+  05A5 05 03       	syscall sys_io			; receive in AH
0238+  05A7 B9 00       	cmp al, 0				; check error code (AL)
0239+  05A9 C6 A3 05    	je gettxt_loop		; if no char received, retry
0240+  05AC 76 04       	cmp ah, 4			; EOT
0241+  05AE C6 EC 05    	je gettxt_end
0242+  05B1 76 08       	cmp ah, $08			; check for backspace
0243+  05B3 C6 E8 05    	je gettxt_backspace
0244+  05B6 76 5C       	cmp ah, $5C				; '\\'
0245+  05B8 C6 C1 05    	je gettxt_escape
0246+  05BB 1A          	mov al, ah
0247+  05BC 3E          	mov [d], al
0248+  05BD 79          	inc d
0249+  05BE 0A A3 05    	jmp gettxt_loop
0250+  05C1             gettxt_escape:
0251+  05C1 19 01       	mov al, 1
0252+  05C3 05 03       	syscall sys_io			; receive in AH
0253+  05C5 B9 00       	cmp al, 0				; check error code (AL)
0254+  05C7 C6 C1 05    	je gettxt_escape		; if no char received, retry
0255+  05CA 76 6E       	cmp ah, 'n'
0256+  05CC C6 DA 05    	je gettxt_LF
0257+  05CF 76 72       	cmp ah, 'r'
0258+  05D1 C6 E1 05    	je gettxt_CR
0259+  05D4 1A          	mov al, ah				; if not a known escape, it is just a normal letter
0260+  05D5 3E          	mov [d], al
0261+  05D6 79          	inc d
0262+  05D7 0A A3 05    	jmp gettxt_loop
0263+  05DA             gettxt_LF:
0264+  05DA 19 0A       	mov al, $0A
0265+  05DC 3E          	mov [d], al
0266+  05DD 79          	inc d
0267+  05DE 0A A3 05    	jmp gettxt_loop
0268+  05E1             gettxt_CR:
0269+  05E1 19 0D       	mov al, $0D
0270+  05E3 3E          	mov [d], al
0271+  05E4 79          	inc d
0272+  05E5 0A A3 05    	jmp gettxt_loop
0273+  05E8             gettxt_backspace:
0274+  05E8 7F          	dec d
0275+  05E9 0A A3 05    	jmp gettxt_loop
0276+  05EC             gettxt_end:
0277+  05EC 19 00       	mov al, 0
0278+  05EE 3E          	mov [d], al				; terminate string
0279+  05EF E7          	pop d
0280+  05F0 E4          	pop a
0281+  05F1 09          	ret
0282+  05F2             
0283+  05F2             ;;;;;;;;;;;;;;;;;;;;;;;;;;;;;;;;;;;;;;;;;;;;;;;;;;;;;;;;;;;;;;;;;;;;;;;;;;;;;;;;;;;;;;;;;;;;;;;;;;;;;;;;;;;;;;;;;;
0284+  05F2             ; PRINT NEW LINE
0285+  05F2             ;;;;;;;;;;;;;;;;;;;;;;;;;;;;;;;;;;;;;;;;;;;;;;;;;;;;;;;;;;;;;;;;;;;;;;;;;;;;;;;;;;;;;;;;;;;;;;;;;;;;;;;;;;;;;;;;;;
0286+  05F2             printnl:
0287+  05F2 D7          	push a
0288+  05F3 10 00 0A    	mov a, $0A00
0289+  05F6 05 03       	syscall sys_io
0290+  05F8 10 00 0D    	mov a, $0D00
0291+  05FB 05 03       	syscall sys_io
0292+  05FD E4          	pop a
0293+  05FE 09          	ret
0294+  05FF             
0295+  05FF             ;;;;;;;;;;;;;;;;;;;;;;;;;;;;;;;;;;;;;;;;;;;;;;;;;;;;;;;;;;;;;;;;;;;;;;;;;;;;;;;;;;;;;;;;;;;;;;;;;;;;;;;;;;;;;;;;;;
0296+  05FF             ; strtoint
0297+  05FF             ; 4 digit hex string number in d
0298+  05FF             ; integer returned in A
0299+  05FF             ;;;;;;;;;;;;;;;;;;;;;;;;;;;;;;;;;;;;;;;;;;;;;;;;;;;;;;;;;;;;;;;;;;;;;;;;;;;;;;;;;;;;;;;;;;;;;;;;;;;;;;;;;;;;;;;;;;
0300+  05FF             strtointx:
0301+  05FF D8          	push b
0302+  0600 32          	mov bl, [d]
0303+  0601 37          	mov bh, bl
0304+  0602 33 01 00    	mov bl, [d + 1]
0305+  0605 07 C5 04    	call atoi				; convert to int in AL
0306+  0608 23          	mov ah, al				; move to AH
0307+  0609 33 02 00    	mov bl, [d + 2]
0308+  060C 37          	mov bh, bl
0309+  060D 33 03 00    	mov bl, [d + 3]
0310+  0610 07 C5 04    	call atoi				; convert to int in AL
0311+  0613 E5          	pop b
0312+  0614 09          	ret
0313+  0615             
0314+  0615             ;;;;;;;;;;;;;;;;;;;;;;;;;;;;;;;;;;;;;;;;;;;;;;;;;;;;;;;;;;;;;;;;;;;;;;;;;;;;;;;;;;;;;;;;;;;;;;;;;;;;;;;;;;;;;;;;;;
0315+  0615             ; strtoint
0316+  0615             ; 5 digit base10 string number in d
0317+  0615             ; integer returned in A
0318+  0615             ;;;;;;;;;;;;;;;;;;;;;;;;;;;;;;;;;;;;;;;;;;;;;;;;;;;;;;;;;;;;;;;;;;;;;;;;;;;;;;;;;;;;;;;;;;;;;;;;;;;;;;;;;;;;;;;;;;
0319+  0615             strtoint:
0320+  0615 E2          	push si
0321+  0616 D8          	push b
0322+  0617 D9          	push c
0323+  0618 DA          	push d
0324+  0619 07 4D 04    	call strlen			; get string length in C
0325+  061C 7E          	dec c
0326+  061D FD 4E       	mov si, d
0327+  061F 12          	mov a, c
0328+  0620 FD 99       	shl a
0329+  0622 3B AD 04    	mov d, table_power
0330+  0625 59          	add d, a
0331+  0626 38 00 00    	mov c, 0
0332+  0629             strtoint_L0:
0333+  0629 F6          	lodsb			; load ASCII to al
0334+  062A B9 00       	cmp al, 0
0335+  062C C6 3F 06    	je strtoint_end
0336+  062F 6F 30       	sub al, $30		; make into integer
0337+  0631 22 00       	mov ah, 0
0338+  0633 2A          	mov b, [d]
0339+  0634 AC          	mul a, b			; result in B since it fits in 16bits
0340+  0635 11          	mov a, b
0341+  0636 28          	mov b, c
0342+  0637 54          	add a, b
0343+  0638 39          	mov c, a
0344+  0639 63 02 00    	sub d, 2
0345+  063C 0A 29 06    	jmp strtoint_L0
0346+  063F             strtoint_end:
0347+  063F 12          	mov a, c
0348+  0640 E7          	pop d
0349+  0641 E6          	pop c
0350+  0642 E5          	pop b
0351+  0643 EF          	pop si
0352+  0644 09          	ret
0353+  0645             
0354+  0645             
0355+  0645             ;;;;;;;;;;;;;;;;;;;;;;;;;;;;;;;;;;;;;;;;;;;;;;;;;;;;;;;;;;;;;;;;;;;;;;;;;;;;;;;;;;;;;;;;;;;;;;;;;;;;;;;;;;;;;;;;;;
0356+  0645             ; PRINT NULL TERMINATED STRING
0357+  0645             ; pointer in D
0358+  0645             ;;;;;;;;;;;;;;;;;;;;;;;;;;;;;;;;;;;;;;;;;;;;;;;;;;;;;;;;;;;;;;;;;;;;;;;;;;;;;;;;;;;;;;;;;;;;;;;;;;;;;;;;;;;;;;;;;;
0359+  0645             puts:
0360+  0645 D7          	push a
0361+  0646 DA          	push d
0362+  0647             puts_L1:
0363+  0647 1E          	mov al, [d]
0364+  0648 B9 00       	cmp al, 0
0365+  064A C6 56 06    	jz puts_END
0366+  064D 23          	mov ah, al
0367+  064E 19 00       	mov al, 0
0368+  0650 05 03       	syscall sys_io
0369+  0652 79          	inc d
0370+  0653 0A 47 06    	jmp puts_L1
0371+  0656             puts_END:
0372+  0656 E7          	pop d
0373+  0657 E4          	pop a
0374+  0658 09          	ret
0375+  0659             
0376+  0659             ;;;;;;;;;;;;;;;;;;;;;;;;;;;;;;;;;;;;;;;;;;;;;;;;;;;;;;;;;;;;;;;;;;;;;;;;;;;;;;;;;;;;;;;;;;;;;;;;;;;;;;;;;;;;;;;;;;
0377+  0659             ; PRINT N SIZE STRING
0378+  0659             ; pointer in D
0379+  0659             ; size in C
0380+  0659             ;;;;;;;;;;;;;;;;;;;;;;;;;;;;;;;;;;;;;;;;;;;;;;;;;;;;;;;;;;;;;;;;;;;;;;;;;;;;;;;;;;;;;;;;;;;;;;;;;;;;;;;;;;;;;;;;;;
0381+  0659             putsn:
0382+  0659 DB          	push al
0383+  065A DA          	push d
0384+  065B D9          	push c
0385+  065C             putsn_L0:
0386+  065C 1E          	mov al, [d]
0387+  065D 23          	mov ah, al
0388+  065E 19 00       	mov al, 0
0389+  0660 05 03       	syscall sys_io
0390+  0662 79          	inc d
0391+  0663 7E          	dec c	
0392+  0664 C2 00 00    	cmp c, 0
0393+  0667 C7 5C 06    	jne putsn_L0
0394+  066A             putsn_end:
0395+  066A E6          	pop c
0396+  066B E7          	pop d
0397+  066C E8          	pop al
0398+  066D 09          	ret
0399+  066E             
0400+  066E             ;;;;;;;;;;;;;;;;;;;;;;;;;;;;;;;;;;;;;;;;;;;;;;;;;;;;;;;;;;;;;;;;;;;;;;;;;;;;;;;;;;;;;;;
0401+  066E             ; print 16bit decimal number
0402+  066E             ; input number in A
0403+  066E             ;;;;;;;;;;;;;;;;;;;;;;;;;;;;;;;;;;;;;;;;;;;;;;;;;;;;;;;;;;;;;;;;;;;;;;;;;;;;;;;;;;;;;;;
0404+  066E             print_u16d:
0405+  066E D7          	push a
0406+  066F D8          	push b
0407+  0670 26 10 27    	mov b, 10000
0408+  0673 AE          	div a, b			; get 10000 coeff.
0409+  0674 07 9A 06    	call print_zero_or_space
0410+  0677 11          	mov a, b
0411+  0678 26 E8 03    	mov b, 1000
0412+  067B AE          	div a, b			; get 10000 coeff.
0413+  067C 07 9A 06    	call print_zero_or_space
0414+  067F 11          	mov a, b
0415+  0680 26 64 00    	mov b, 100
0416+  0683 AE          	div a, b
0417+  0684 07 9A 06    	call print_zero_or_space
0418+  0687 11          	mov a, b
0419+  0688 26 0A 00    	mov b, 10
0420+  068B AE          	div a, b
0421+  068C 07 9A 06    	call print_zero_or_space
0422+  068F 11          	mov a, b
0423+  0690 6A 30       	add al, $30
0424+  0692 23          	mov ah, al
0425+  0693 19 00       	mov al, 0
0426+  0695 05 03       	syscall sys_io	; print coeff
0427+  0697 E5          	pop b
0428+  0698 E4          	pop a
0429+  0699 09          	ret
0430+  069A             
0431+  069A             
0432+  069A             ;;;;;;;;;;;;;;;;;;;;;;;;;;;;;;;;;;;;;;;;;;;;;;;;;;;;;;;;;;;;;;;;;;;;;;;;;;;;;;;;;;;;;;;
0433+  069A             ; if A == 0, print space
0434+  069A             ; else print A
0435+  069A             ;;;;;;;;;;;;;;;;;;;;;;;;;;;;;;;;;;;;;;;;;;;;;;;;;;;;;;;;;;;;;;;;;;;;;;;;;;;;;;;;;;;;;;;
0436+  069A             print_zero_or_space:
0437+  069A             	; cmp a, 0
0438+  069A             	; jne print_number
0439+  069A             	; mov ah, $20
0440+  069A             	; call putchar
0441+  069A             	; ret
0442+  069A             print_number:
0443+  069A 6A 30       	add al, $30
0444+  069C 23          	mov ah, al
0445+  069D 07 10 05    	call putchar
0446+  06A0 09          	ret
0447+  06A1             
0448+  06A1             ;;;;;;;;;;;;;;;;;;;;;;;;;;;;;;;;;;;;;;;;;;;;;;;;;;;;;;;;;;;;;;;;;;;;;;;;;;;;;;;;;;;;;;;;;;;;;;;;;;;;;;;;;;;;;;;;;;
0449+  06A1             ; PRINT 16BIT HEX INTEGER
0450+  06A1             ; integer value in reg B
0451+  06A1             ;;;;;;;;;;;;;;;;;;;;;;;;;;;;;;;;;;;;;;;;;;;;;;;;;;;;;;;;;;;;;;;;;;;;;;;;;;;;;;;;;;;;;;;;;;;;;;;;;;;;;;;;;;;;;;;;;;
0452+  06A1             print_u16x:
0453+  06A1 D7          	push a
0454+  06A2 D8          	push b
0455+  06A3 DD          	push bl
0456+  06A4 30          	mov bl, bh
0457+  06A5 07 D7 04    	call itoa				; convert bh to char in A
0458+  06A8 2F          	mov bl, al				; save al
0459+  06A9 19 00       	mov al, 0
0460+  06AB 05 03       	syscall sys_io				; display AH
0461+  06AD 24          	mov ah, bl				; retrieve al
0462+  06AE 19 00       	mov al, 0
0463+  06B0 05 03       	syscall sys_io				; display AL
0464+  06B2             
0465+  06B2 EA          	pop bl
0466+  06B3 07 D7 04    	call itoa				; convert bh to char in A
0467+  06B6 2F          	mov bl, al				; save al
0468+  06B7 19 00       	mov al, 0
0469+  06B9 05 03       	syscall sys_io				; display AH
0470+  06BB 24          	mov ah, bl				; retrieve al
0471+  06BC 19 00       	mov al, 0
0472+  06BE 05 03       	syscall sys_io				; display AL
0473+  06C0             
0474+  06C0 E5          	pop b
0475+  06C1 E4          	pop a
0476+  06C2 09          	ret
0477+  06C3             
0478+  06C3             ;;;;;;;;;;;;;;;;;;;;;;;;;;;;;;;;;;;;;;;;;;;;;;;;;;;;;;;;;;;;;;;;;;;;;;;;;;;;;;;;;;;;;;;;;;;;;;;;;;;;;;;;;;;;;;;;;;
0479+  06C3             ; INPUT 16BIT HEX INTEGER
0480+  06C3             ; read 16bit integer into A
0481+  06C3             ;;;;;;;;;;;;;;;;;;;;;;;;;;;;;;;;;;;;;;;;;;;;;;;;;;;;;;;;;;;;;;;;;;;;;;;;;;;;;;;;;;;;;;;;;;;;;;;;;;;;;;;;;;;;;;;;;;
0482+  06C3             scan_u16x:
0483+  06C3 F8 10 00    	enter 16
0484+  06C6 D8          	push b
0485+  06C7 DA          	push d
0486+  06C8             
0487+  06C8 FA F1 FF    	lea d, [bp + -15]
0488+  06CB 07 17 05    	call gets				; get number
0489+  06CE             
0490+  06CE 32          	mov bl, [d]
0491+  06CF 37          	mov bh, bl
0492+  06D0 33 01 00    	mov bl, [d + 1]
0493+  06D3 07 C5 04    	call atoi				; convert to int in AL
0494+  06D6 23          	mov ah, al				; move to AH
0495+  06D7             
0496+  06D7 33 02 00    	mov bl, [d + 2]
0497+  06DA 37          	mov bh, bl
0498+  06DB 33 03 00    	mov bl, [d + 3]
0499+  06DE 07 C5 04    	call atoi				; convert to int in AL
0500+  06E1             
0501+  06E1 E7          	pop d
0502+  06E2 E5          	pop b
0503+  06E3 F9          	leave
0504+  06E4 09          	ret
0505+  06E5             
0506+  06E5             ;;;;;;;;;;;;;;;;;;;;;;;;;;;;;;;;;;;;;;;;;;;;;;;;;;;;;;;;;;;;;;;;;;;;;;;;;;;;;;;;;;;;;;;;;;;;;;;;;;;;;;;;;;;;;;;;;;
0507+  06E5             ; PRINT 8bit HEX INTEGER
0508+  06E5             ; integer value in reg bl
0509+  06E5             ;;;;;;;;;;;;;;;;;;;;;;;;;;;;;;;;;;;;;;;;;;;;;;;;;;;;;;;;;;;;;;;;;;;;;;;;;;;;;;;;;;;;;;;;;;;;;;;;;;;;;;;;;;;;;;;;;;
0510+  06E5             print_u8x:
0511+  06E5 D7          	push a
0512+  06E6 DD          	push bl
0513+  06E7             
0514+  06E7 07 D7 04    	call itoa				; convert bl to char in A
0515+  06EA 2F          	mov bl, al				; save al
0516+  06EB 19 00       	mov al, 0
0517+  06ED 05 03       	syscall sys_io				; display AH
0518+  06EF 24          	mov ah, bl				; retrieve al
0519+  06F0 19 00       	mov al, 0
0520+  06F2 05 03       	syscall sys_io				; display AL
0521+  06F4             
0522+  06F4 EA          	pop bl
0523+  06F5 E4          	pop a
0524+  06F6 09          	ret
0525+  06F7             
0526+  06F7             ;;;;;;;;;;;;;;;;;;;;;;;;;;;;;;;;;;;;;;;;;;;;;;;;;;;;;;;;;;;;;;;;;;;;;;;;;;;;;;;;;;;;;;;
0527+  06F7             ; print 8bit decimal unsigned number
0528+  06F7             ; input number in AL
0529+  06F7             ;;;;;;;;;;;;;;;;;;;;;;;;;;;;;;;;;;;;;;;;;;;;;;;;;;;;;;;;;;;;;;;;;;;;;;;;;;;;;;;;;;;;;;;
0530+  06F7             print_u8d:
0531+  06F7 D7          	push a
0532+  06F8 D8          	push b
0533+  06F9             
0534+  06F9 22 00       	mov ah, 0
0535+  06FB 26 64 00    	mov b, 100
0536+  06FE AE          	div a, b
0537+  06FF D8          	push b			; save remainder
0538+  0700 B9 00       	cmp al, 0
0539+  0702 C6 0C 07    	je skip100
0540+  0705 6A 30       	add al, $30
0541+  0707 23          	mov ah, al
0542+  0708 19 00       	mov al, 0
0543+  070A 05 03       	syscall sys_io	; print coeff
0544+  070C             skip100:
0545+  070C E4          	pop a
0546+  070D 22 00       	mov ah, 0
0547+  070F 26 0A 00    	mov b, 10
0548+  0712 AE          	div a, b
0549+  0713 D8          	push b			; save remainder
0550+  0714 B9 00       	cmp al, 0
0551+  0716 C6 20 07    	je skip10
0552+  0719 6A 30       	add al, $30
0553+  071B 23          	mov ah, al
0554+  071C 19 00       	mov al, 0
0555+  071E 05 03       	syscall sys_io	; print coeff
0556+  0720             skip10:
0557+  0720 E4          	pop a
0558+  0721 1B          	mov al, bl
0559+  0722 6A 30       	add al, $30
0560+  0724 23          	mov ah, al
0561+  0725 19 00       	mov al, 0
0562+  0727 05 03       	syscall sys_io	; print coeff
0563+  0729 E5          	pop b
0564+  072A E4          	pop a
0565+  072B 09          	ret
0566+  072C             
0567+  072C             ;;;;;;;;;;;;;;;;;;;;;;;;;;;;;;;;;;;;;;;;;;;;;;;;;;;;;;;;;;;;;;;;;;;;;;;;;;;;;;;;;;;;;;;;;;;;;;;;;;;;;;;;;;;;;;;;;;
0568+  072C             ; INPUT 8BIT HEX INTEGER
0569+  072C             ; read 8bit integer into AL
0570+  072C             ;;;;;;;;;;;;;;;;;;;;;;;;;;;;;;;;;;;;;;;;;;;;;;;;;;;;;;;;;;;;;;;;;;;;;;;;;;;;;;;;;;;;;;;;;;;;;;;;;;;;;;;;;;;;;;;;;;
0571+  072C             scan_u8x:
0572+  072C F8 04 00    	enter 4
0573+  072F D8          	push b
0574+  0730 DA          	push d
0575+  0731             
0576+  0731 FA FD FF    	lea d, [bp + -3]
0577+  0734 07 17 05    	call gets				; get number
0578+  0737             
0579+  0737 32          	mov bl, [d]
0580+  0738 37          	mov bh, bl
0581+  0739 33 01 00    	mov bl, [d + 1]
0582+  073C 07 C5 04    	call atoi				; convert to int in AL
0583+  073F             
0584+  073F E7          	pop d
0585+  0740 E5          	pop b
0586+  0741 F9          	leave
0587+  0742 09          	ret
0588+  0743             
0589+  0743             ;;;;;;;;;;;;;;;;;;;;;;;;;;;;;;;;;;;;;;;;;;;;;;;;;;;;;;;;;;;;;;;;;;;;;;;;;;;;;;;;;;;;;;;
0590+  0743             ; input decimal number
0591+  0743             ; result in A
0592+  0743             ; 655'\0'
0593+  0743             ; low--------high
0594+  0743             ;;;;;;;;;;;;;;;;;;;;;;;;;;;;;;;;;;;;;;;;;;;;;;;;;;;;;;;;;;;;;;;;;;;;;;;;;;;;;;;;;;;;;;;
0595+  0743             scan_u16d:
0596+  0743 F8 08 00    	enter 8
0597+  0746 E2          	push si
0598+  0747 D8          	push b
0599+  0748 D9          	push c
0600+  0749 DA          	push d
0601+  074A FA F9 FF    	lea d, [bp +- 7]
0602+  074D 07 17 05    	call gets
0603+  0750 07 4D 04    	call strlen			; get string length in C
0604+  0753 7E          	dec c
0605+  0754 FD 4E       	mov si, d
0606+  0756 12          	mov a, c
0607+  0757 FD 99       	shl a
0608+  0759 3B AD 04    	mov d, table_power
0609+  075C 59          	add d, a
0610+  075D 38 00 00    	mov c, 0
0611+  0760             mul_loop:
0612+  0760 F6          	lodsb			; load ASCII to al
0613+  0761 B9 00       	cmp al, 0
0614+  0763 C6 76 07    	je mul_exit
0615+  0766 6F 30       	sub al, $30		; make into integer
0616+  0768 22 00       	mov ah, 0
0617+  076A 2A          	mov b, [d]
0618+  076B AC          	mul a, b			; result in B since it fits in 16bits
0619+  076C 11          	mov a, b
0620+  076D 28          	mov b, c
0621+  076E 54          	add a, b
0622+  076F 39          	mov c, a
0623+  0770 63 02 00    	sub d, 2
0624+  0773 0A 60 07    	jmp mul_loop
0625+  0776             mul_exit:
0626+  0776 12          	mov a, c
0627+  0777 E7          	pop d
0628+  0778 E6          	pop c
0629+  0779 E5          	pop b
0630+  077A EF          	pop si
0631+  077B F9          	leave
0632+  077C 09          	ret
0016   077D             .include "ctype.asm"
0001+  077D             ;;;;;;;;;;;;;;;;;;;;;;;;;;;;;;;;;;;;;;;;;;;;;;;;;;;;;;;;;;;;;;;;;;;;;;;;;;;;;;;;;;;;;;;;;;;;;;;;;;;;;;;;;;;;;;;;;;
0002+  077D             ; ctype.s
0003+  077D             ;;;;;;;;;;;;;;;;;;;;;;;;;;;;;;;;;;;;;;;;;;;;;;;;;;;;;;;;;;;;;;;;;;;;;;;;;;;;;;;;;;;;;;;;;;;;;;;;;;;;;;;;;;;;;;;;;;
0004+  077D             
0005+  077D             ;;;;;;;;;;;;;;;;;;;;;;;;;;;;;;;;;;;;;;;;;;;;;;;;;;;;;;;;;;;;;;;;;;;;;;;;;;;;;;;;;;;;;;;;;;;;;;;;;;;;;;;;;;;;;;;;;;
0006+  077D             ;; C character classification is an operation provided by a group of functions in the ANSI C Standard Library
0007+  077D             ;; for the C programming language. These functions are used to test characters for membership in a particular
0008+  077D             ;; class of characters, such as alphabetic characters, control characters, etc. Both single-byte, and wide
0009+  077D             ;; characters are supported.
0010+  077D             ;;;;;;;;;;;;;;;;;;;;;;;;;;;;;;;;;;;;;;;;;;;;;;;;;;;;;;;;;;;;;;;;;;;;;;;;;;;;;;;;;;;;;;;;;;;;;;;;;;;;;;;;;;;;;;;;;;
0011+  077D             ;; isalnum 
0012+  077D             ;; isalpha 
0013+  077D             ;; islower 
0014+  077D             ;; isupper 
0015+  077D             ;; isdigit 
0016+  077D             ;; isxdigit
0017+  077D             ;; iscntrl 
0018+  077D             ;; isgraph 
0019+  077D             ;; isspace 
0020+  077D             ;; isblank 
0021+  077D             ;; isprint 
0022+  077D             ;; ispunct 
0023+  077D             ;; tolower 
0024+  077D             ;; toupper
0025+  077D             
0026+  077D             
0027+  077D             ;;;;;;;;;;;;;;;;;;;;;;;;;;;;;;;;;;;;;;;;;;;;;;;;;;;;;;;;;;;;;;;;;;;;;;;;;;;;;;;;;;
0028+  077D             ;; IS ALPHANUMERIC
0029+  077D             ;; sets ZF according with result
0030+  077D             ;;;;;;;;;;;;;;;;;;;;;;;;;;;;;;;;;;;;;;;;;;;;;;;;;;;;;;;;;;;;;;;;;;;;;;;;;;;;;;;;;;
0031+  077D             isalnum:
0032+  077D 07 9A 07    	call isalpha
0033+  0780 C6 86 07    	je isalnum_exit
0034+  0783 07 87 07    	call isdigit
0035+  0786             isalnum_exit:
0036+  0786 09          	ret	
0037+  0787             ;;;;;;;;;;;;;;;;;;;;;;;;;;;;;;;;;;;;;;;;;;;;;;;;;;;;;;;;;;;;;;;;;;;;;;;;;;;;;;;;;;
0038+  0787             ;; IS DIGIT
0039+  0787             ;; sets ZF according with result
0040+  0787             ;;;;;;;;;;;;;;;;;;;;;;;;;;;;;;;;;;;;;;;;;;;;;;;;;;;;;;;;;;;;;;;;;;;;;;;;;;;;;;;;;;
0041+  0787             isdigit:
0042+  0787 DB          	push al
0043+  0788 B9 30       	cmp al, '0'
0044+  078A C8 96 07    	jlu isdigit_false
0045+  078D B9 39       	cmp al, '9'
0046+  078F D1 96 07    	jgu isdigit_false
0047+  0792 87 00       	and al, 0	; set ZF
0048+  0794 E8          	pop al
0049+  0795 09          	ret
0050+  0796             isdigit_false:
0051+  0796 8B 01       	or al, 1	; clear ZF
0052+  0798 E8          	pop al
0053+  0799 09          	ret	
0054+  079A             	
0055+  079A             ;;;;;;;;;;;;;;;;;;;;;;;;;;;;;;;;;;;;;;;;;;;;;;;;;;;;;;;;;;;;;;;;;;;;;;;;;;;;;;;;;;
0056+  079A             ;; IS ALPHA
0057+  079A             ;; sets ZF according with result
0058+  079A             ;;;;;;;;;;;;;;;;;;;;;;;;;;;;;;;;;;;;;;;;;;;;;;;;;;;;;;;;;;;;;;;;;;;;;;;;;;;;;;;;;;
0059+  079A             isalpha:
0060+  079A DB          	push al
0061+  079B B9 5F       	cmp al, '_'
0062+  079D C6 BD 07    	je isalpha_true
0063+  07A0 B9 2E       	cmp al, '.'
0064+  07A2 C6 BD 07    	je isalpha_true
0065+  07A5 B9 41       	cmp al, 'A'
0066+  07A7 C8 B9 07    	jlu isalpha_false
0067+  07AA B9 7A       	cmp al, 'z'
0068+  07AC D1 B9 07    	jgu isalpha_false
0069+  07AF B9 5A       	cmp al, 'Z'
0070+  07B1 D0 BD 07    	jleu isalpha_true
0071+  07B4 B9 61       	cmp al, 'a'
0072+  07B6 C9 BD 07    	jgeu isalpha_true
0073+  07B9             isalpha_false:
0074+  07B9 8B 01       	or al, 1	; clear ZF
0075+  07BB E8          	pop al
0076+  07BC 09          	ret
0077+  07BD             isalpha_true:
0078+  07BD 87 00       	and al, 0	; set ZF
0079+  07BF E8          	pop al
0080+  07C0 09          	ret
0081+  07C1             
0082+  07C1             ;;;;;;;;;;;;;;;;;;;;;;;;;;;;;;;;;;;;;;;;;;;;;;;;;;;;;;;;;;;;;;;;;;;;;;;;;;;;;;;;;;
0083+  07C1             ;; IS PATH-ALPHA
0084+  07C1             ;; sets ZF according with result
0085+  07C1             ;;;;;;;;;;;;;;;;;;;;;;;;;;;;;;;;;;;;;;;;;;;;;;;;;;;;;;;;;;;;;;;;;;;;;;;;;;;;;;;;;;
0086+  07C1             ispath:
0087+  07C1 DB          	push al
0088+  07C2 07 87 07    	call isdigit
0089+  07C5 C6 EF 07    	je ispath_true
0090+  07C8 B9 5F       	cmp al, '_'
0091+  07CA C6 EF 07    	je ispath_true
0092+  07CD B9 2F       	cmp al, '/'
0093+  07CF C6 EF 07    	je ispath_true
0094+  07D2 B9 2E       	cmp al, '.'
0095+  07D4 C6 EF 07    	je ispath_true
0096+  07D7 B9 41       	cmp al, 'A'
0097+  07D9 C8 EB 07    	jlu ispath_false
0098+  07DC B9 7A       	cmp al, 'z'
0099+  07DE D1 EB 07    	jgu ispath_false
0100+  07E1 B9 5A       	cmp al, 'Z'
0101+  07E3 D0 EF 07    	jleu ispath_true
0102+  07E6 B9 61       	cmp al, 'a'
0103+  07E8 C9 EF 07    	jgeu ispath_true
0104+  07EB             ispath_false:
0105+  07EB 8B 01       	or al, 1	; clear ZF
0106+  07ED E8          	pop al
0107+  07EE 09          	ret
0108+  07EF             ispath_true:
0109+  07EF 87 00       	and al, 0	; set ZF
0110+  07F1 E8          	pop al
0111+  07F2 09          	ret
0112+  07F3             ;;;;;;;;;;;;;;;;;;;;;;;;;;;;;;;;;;;;;;;;;;;;;;;;;;;;;;;;;;;;;;;;;;;;;;;;;;;;;;;;;;
0113+  07F3             ;; IS SPACE
0114+  07F3             ;; sets ZF according with result
0115+  07F3             ;;;;;;;;;;;;;;;;;;;;;;;;;;;;;;;;;;;;;;;;;;;;;;;;;;;;;;;;;;;;;;;;;;;;;;;;;;;;;;;;;;
0116+  07F3             isspace:
0117+  07F3 B9 20       	cmp al, $20		; ' '
0118+  07F5 C6 09 08    	je isspace_exit
0119+  07F8 B9 09       	cmp al, $09		; '\t'
0120+  07FA C6 09 08    	je isspace_exit
0121+  07FD B9 0A       	cmp al, $0A		; '\n'
0122+  07FF C6 09 08    	je isspace_exit
0123+  0802 B9 0D       	cmp al, $0D		; '\r'
0124+  0804 C6 09 08    	je isspace_exit
0125+  0807 B9 0B       	cmp al, $0B		; '\v'
0126+  0809             isspace_exit:
0127+  0809 09          	ret	
0128+  080A             
0129+  080A             ;;;;;;;;;;;;;;;;;;;;;;;;;;;;;;;;;;;;;;;;;;;;;;;;;;;;;;;;;;;;;;;;;;;;;;;;;;;;;;;;;;;;;;;;;;;;;;;;;;;;;;;;;;;;;;;;;;
0130+  080A             ; TO LOWER
0131+  080A             ; input in AL
0132+  080A             ; output in AL
0133+  080A             ;;;;;;;;;;;;;;;;;;;;;;;;;;;;;;;;;;;;;;;;;;;;;;;;;;;;;;;;;;;;;;;;;;;;;;;;;;;;;;;;;;;;;;;;;;;;;;;;;;;;;;;;;;;;;;;;;;
0134+  080A             to_lower:
0135+  080A B9 5A       	cmp al, 'Z'
0136+  080C D1 11 08    	jgu to_lower_ret
0137+  080F 6A 20       	add al, $20				; convert to lower case
0138+  0811             to_lower_ret:
0139+  0811 09          	ret
0140+  0812             ;;;;;;;;;;;;;;;;;;;;;;;;;;;;;;;;;;;;;;;;;;;;;;;;;;;;;;;;;;;;;;;;;;;;;;;;;;;;;;;;;;;;;;;;;;;;;;;;;;;;;;;;;;;;;;;;;;
0141+  0812             ; TO UPPER
0142+  0812             ; input in AL
0143+  0812             ; output in AL
0144+  0812             ;;;;;;;;;;;;;;;;;;;;;;;;;;;;;;;;;;;;;;;;;;;;;;;;;;;;;;;;;;;;;;;;;;;;;;;;;;;;;;;;;;;;;;;;;;;;;;;;;;;;;;;;;;;;;;;;;;
0145+  0812             to_upper:
0146+  0812 B9 61       	cmp al, 'a'
0147+  0814 C8 19 08    	jlu to_upper_ret
0148+  0817 6F 20       	sub al, $20			; convert to upper case
0149+  0819             to_upper_ret:
0150+  0819 09          	ret
0151+  081A             
0017   081A             
0018   081A             .end
0019   081A             
0020   081A             
0021   081A             
tasm: Number of errors = 0
