0001   0000             .include "kernel.exp"
0001+  0000             PROC_TEXT_ORG    .EQU  $0400
0002+  0000             sys_bkpt         .EQU  $0000
0003+  0000             sys_rtc          .EQU  $0001
0004+  0000             sys_IDE          .EQU  $0002
0005+  0000             sys_io           .EQU  $0003
0006+  0000             sys_fileio       .EQU  $0004
0007+  0000             sys_fork         .EQU  $0005
0008+  0000             sys_list         .EQU  $0006
0009+  0000             sys_datetime     .EQU  $0007
0010+  0000             sys_reboot       .EQU  $0008
0011+  0000             sys_pauseproc    .EQU  $0009
0012+  0000             sys_resumeproc   .EQU  $000a
0013+  0000             sys_terminate_proc .EQU  $000b
0014+  0000             sys_system       .EQU  $000c
0015+  0000             sys_boot_install .EQU  $000d
0002   0000             
0003   0400             .org PROC_TEXT_ORG			; origin at 1024
0004   0400             
0005   0400             ; ********************************************************************
0006   0400             ; DATETIME
0007   0400             ; ********************************************************************
0008   0400             cmd_printdate:
0009   0400 19 00       	mov al, 0			; print datetime
0010   0402 05 07       	syscall sys_datetime
0011   0404             
0012   0404 05 0B       	syscall sys_terminate_proc
0013   0406             
0014   0406             
0015   0406             
0016   0406             .end
0017   0406             
0018   0406             
tasm: Number of errors = 0
