0001   0000             ;;;;;;;;;;;;;;;;;;;;;;;;;;;;;;;;;;;;;;;;;;;;;;;;;;;;;;;;;;;;;;;;;;;;;;;;;;;;;;;;;;;;;;;;;;;;;;;;;;;;;;;;;;;;;;;;;;
0002   0000             ; math.s
0003   0000             ;;;;;;;;;;;;;;;;;;;;;;;;;;;;;;;;;;;;;;;;;;;;;;;;;;;;;;;;;;;;;;;;;;;;;;;;;;;;;;;;;;;;;;;;;;;;;;;;;;;;;;;;;;;;;;;;;;
0004   0000             
0005   0000             ;;;;;;;;;;;;;;;;;;;;;;;;;;;;;;;;;;;;;;;;;;;;;;;;;;;;;;;;;;;;;;;;;;;;;;;;;;;;;;;;;;;;;;;;;;;;;;;;;;;;;;;;;;;;;;;;;;
0006   0000             ;
0007   0000             ;;;;;;;;;;;;;;;;;;;;;;;;;;;;;;;;;;;;;;;;;;;;;;;;;;;;;;;;;;;;;;;;;;;;;;;;;;;;;;;;;;;;;;;;;;;;;;;;;;;;;;;;;;;;;;;;;;
0008   0000             
0009   0000             ; fact(n){ n == 1 ? return 1 : return n * fact(n - 1); }
0010   0000             ; STACK:
0011   0000             ; arguments
0012   0000             ; pc
0013   0000             ; n in A
0014   0000             fact:
0015   0000 AF 01 00    	cmp a, 1
0016   0003 C7 07 00    	jne fact2
0017   0006 09          	ret
0018   0007             fact2:
0019   0007 D7          	push a
0020   0008 7D          	dec a
0021   0009 07 00 00    	call fact
0022   000C 27          	mov b, a
0023   000D E4          	pop a
0024   000E AC          	mul a, b
0025   000F 11          	mov a, b
0026   0010 09          	ret	
 line 0026: No END directive before EOF.       
tasm: Number of errors = 1
